%!PS-Adobe-2.0 EPSF-2.0
%%BoundingBox: 0 0  520 520
%%EndComments
 10 10 translate 0 setlinewidth
 /v{moveto lineto stroke}def
    0.7  118.5    0.0  118.5 v
    2.3  119.4    0.0  119.4 v
    4.0  120.3    0.0  120.3 v
    5.6  121.2    0.0  121.2 v
    0.0  122.1    5.8  122.1 v
    0.0  123.0    4.0  123.0 v
    0.0  123.9    2.1  123.9 v
    0.0  124.8    0.3  124.8 v
  133.1  386.8  137.2  386.8 v
  137.2  386.8  140.5  386.9 v
  129.6  386.7  133.1  386.8 v
  129.6  386.7  125.7  386.6 v
  144.8  386.9  140.5  386.9 v
  144.8  386.9  148.0  387.0 v
  152.3  387.0  148.0  387.0 v
  152.3  387.0  155.4  387.1 v
  159.9  387.1  155.4  387.1 v
  159.9  387.1  162.8  387.2 v
  167.5  387.2  162.8  387.2 v
  167.5  387.2  170.3  387.3 v
  175.0  387.3  170.3  387.3 v
  175.0  387.3  177.7  387.4 v
  182.6  387.4  177.7  387.4 v
  182.6  387.4  185.2  387.4 v
  190.1  387.4  185.2  387.4 v
  190.1  387.4  192.7  387.5 v
  197.6  387.5  192.7  387.5 v
  197.6  387.5  200.1  387.5 v
  195.9  383.2  202.5  383.3 v
  205.2  387.6  200.1  387.5 v
  202.7  383.3  202.5  383.3 v
  205.2  387.6  207.5  387.8 v
  202.7  383.3  209.8  383.8 v
  213.0  388.1  207.5  387.8 v
  210.5  383.8  209.8  383.8 v
  213.0  388.1  214.7  388.2 v
  210.5  383.8  216.9  384.4 v
  220.8  388.7  214.7  388.2 v
  218.4  384.5  216.9  384.4 v
  220.8  388.7  221.9  388.8 v
  218.4  384.5  224.1  384.9 v
  228.6  389.1  221.9  388.8 v
  226.2  385.0  224.1  384.9 v
  228.6  389.1  229.2  389.1 v
  226.2  385.0  231.7  384.7 v
  235.9  388.8  229.2  389.1 v
  233.5  384.7  231.7  384.7 v
  235.9  388.8  237.0  388.6 v
  239.6  383.1  233.5  384.7 v
  242.8  387.8  237.0  388.6 v
  242.8  387.8  245.8  386.4 v
  249.1  385.7  245.8  386.4 v
  252.7  383.1  249.1  385.7 v
  266.8  377.4  268.3  376.6 v
  266.8  377.4  265.9  377.5 v
  261.1  380.4  265.9  377.5 v
  261.1  380.4  255.9  381.9 v
  254.8  382.5  255.9  381.9 v
  252.9  379.2  256.9  376.6 v
  252.7  383.1  254.8  382.5 v
  252.9  379.2  249.3  380.2 v
  246.7  381.6  249.3  380.2 v
  245.3  379.1  250.0  376.6 v
  246.7  381.6  240.2  383.0 v
  245.3  379.1  242.0  379.8 v
  240.1  383.1  240.2  383.0 v
  238.9  381.0  242.0  379.8 v
  237.7  378.9  243.8  376.6 v
  236.4  376.8  236.7  376.6 v
  239.6  383.1  240.1  383.1 v
  238.9  381.0  233.5  381.6 v
  237.7  378.9  234.9  379.2 v
  236.4  376.8  236.3  376.8 v
  231.9  381.9  233.5  381.6 v
  230.8  379.9  234.9  379.2 v
  229.6  377.9  236.3  376.8 v
  231.9  381.9  225.8  382.0 v
  230.8  379.9  226.9  380.0 v
  229.6  377.9  228.1  378.0 v
  224.5  382.1  225.8  382.0 v
  223.4  380.1  226.9  380.0 v
  222.3  378.2  228.1  378.0 v
  224.5  382.1  218.4  381.9 v
  223.4  380.1  219.4  380.0 v
  222.3  378.2  220.5  378.1 v
  216.9  381.8  218.4  381.9 v
  215.8  379.9  219.4  380.0 v
  214.6  378.0  220.5  378.1 v
  216.9  381.8  211.0  381.6 v
  215.8  379.9  212.1  379.7 v
  214.6  378.0  213.2  377.9 v
  209.2  381.5  211.0  381.6 v
  208.1  379.6  212.1  379.7 v
  207.0  377.7  213.2  377.9 v
  209.2  381.5  203.7  381.4 v
  208.1  379.6  204.7  379.5 v
  207.0  377.7  205.8  377.7 v
  201.6  381.4  203.7  381.4 v
  200.5  379.5  204.7  379.5 v
  199.4  377.7  205.8  377.7 v
  195.9  383.2  195.1  383.2 v
  201.6  381.4  196.2  381.3 v
  200.5  379.5  197.3  379.5 v
  199.4  377.7  198.3  377.6 v
  195.1  383.2  195.1  383.2 v
  194.1  381.3  196.2  381.3 v
  193.0  379.5  197.3  379.5 v
  192.0  377.7  198.3  377.6 v
  195.1  383.2  187.7  383.1 v
  194.1  381.3  188.7  381.3 v
  193.0  379.5  189.7  379.5 v
  192.0  377.7  190.8  377.7 v
  187.6  383.1  187.7  383.1 v
  186.6  381.3  188.7  381.3 v
  185.5  379.5  189.7  379.5 v
  184.5  377.7  190.8  377.7 v
  187.6  383.1  180.2  383.1 v
  186.6  381.3  181.2  381.3 v
  185.5  379.5  182.2  379.5 v
  184.5  377.7  183.3  377.7 v
  180.1  383.1  180.2  383.1 v
  179.1  381.3  181.2  381.3 v
  178.0  379.5  182.2  379.5 v
  177.0  377.8  183.3  377.7 v
  180.1  383.1  172.7  383.0 v
  179.1  381.3  173.7  381.3 v
  178.0  379.5  174.7  379.5 v
  177.0  377.8  175.8  377.8 v
  172.5  383.0  172.7  383.0 v
  171.5  381.3  173.7  381.3 v
  170.5  379.5  174.7  379.5 v
  169.5  377.8  175.8  377.8 v
  172.5  383.0  165.2  383.0 v
  171.5  381.3  166.2  381.3 v
  170.5  379.5  167.2  379.5 v
  169.5  377.8  168.2  377.8 v
  165.0  383.0  165.2  383.0 v
  164.0  381.3  166.2  381.3 v
  163.0  379.5  167.2  379.5 v
  162.0  377.8  168.2  377.8 v
  165.0  383.0  157.8  382.9 v
  164.0  381.3  158.8  381.2 v
  163.0  379.5  159.8  379.5 v
  162.0  377.8  160.7  377.8 v
  157.5  382.9  157.8  382.9 v
  156.5  381.2  158.8  381.2 v
  155.5  379.5  159.8  379.5 v
  154.5  377.8  160.7  377.8 v
  157.5  382.9  150.3  382.9 v
  156.5  381.2  151.3  381.2 v
  155.5  379.5  152.3  379.5 v
  154.5  377.8  153.2  377.8 v
  149.9  382.9  150.3  382.9 v
  149.0  381.2  151.3  381.2 v
  148.0  379.5  152.3  379.5 v
  147.0  377.8  153.2  377.8 v
  149.9  382.9  142.8  382.8 v
  149.0  381.2  143.8  381.2 v
  148.0  379.5  144.8  379.5 v
  147.0  377.8  145.7  377.8 v
  142.4  382.8  142.8  382.8 v
  141.5  381.2  143.8  381.2 v
  140.5  379.5  144.8  379.5 v
  139.5  377.9  145.7  377.8 v
  142.4  382.8  135.4  382.8 v
  141.5  381.2  136.3  381.1 v
  140.5  379.5  137.3  379.5 v
  139.5  377.9  138.2  377.8 v
  134.9  382.8  135.4  382.8 v
  133.9  381.1  136.3  381.1 v
  133.0  379.5  137.3  379.5 v
  132.0  377.9  138.2  377.8 v
  134.9  382.8  127.9  382.7 v
  133.9  381.1  128.8  381.1 v
  133.0  379.5  129.8  379.5 v
  132.0  377.9  130.7  377.9 v
  127.4  382.7  127.9  382.7 v
  126.4  381.1  128.8  381.1 v
  125.5  379.5  129.8  379.5 v
  124.6  377.9  130.7  377.9 v
  271.7  372.8  273.7  370.1 v
  268.3  376.6  271.7  372.8 v
  258.2  375.4  261.9  370.1 v
  255.5  370.8  256.0  370.1 v
  256.9  376.6  258.2  375.4 v
  255.5  370.8  253.7  372.6 v
  250.9  375.9  253.7  372.6 v
  249.1  372.7  251.2  370.1 v
  250.0  376.6  250.9  375.9 v
  249.1  372.7  243.9  376.6 v
  243.9  376.6  243.9  376.6 v
  242.3  374.0  246.7  370.1 v
  240.8  371.3  242.2  370.1 v
  243.8  376.6  243.9  376.6 v
  236.7  376.6  242.3  374.0 v
  240.8  371.3  238.9  372.2 v
  235.0  374.3  238.9  372.2 v
  233.6  371.8  236.7  370.2 v
  235.0  374.3  229.5  375.5 v
  233.6  371.8  231.4  372.3 v
  228.4  375.7  229.5  375.5 v
  226.9  373.2  231.4  372.3 v
  225.4  370.6  227.5  370.2 v
  228.4  375.7  221.7  376.1 v
  226.9  373.2  223.3  373.3 v
  225.4  370.6  224.9  370.6 v
  221.0  376.1  221.7  376.1 v
  219.5  373.4  223.3  373.3 v
  217.9  370.7  224.9  370.6 v
  221.0  376.1  214.4  375.8 v
  219.5  373.4  215.9  373.2 v
  217.9  370.7  217.3  370.7 v
  213.4  375.8  214.4  375.8 v
  211.8  373.0  215.9  373.2 v
  210.2  370.3  217.3  370.7 v
  213.4  375.8  207.0  375.5 v
  211.8  373.0  208.6  372.9 v
  210.2  370.3  210.1  370.3 v
  205.7  375.5  207.0  375.5 v
  204.1  372.8  208.6  372.9 v
  210.1  370.3  206.7  370.2 v
  205.7  375.5  199.6  375.4 v
  204.1  372.8  201.2  372.7 v
  198.1  375.4  199.6  375.4 v
  196.6  372.7  201.2  372.7 v
  198.1  375.4  192.1  375.5 v
  196.6  372.7  193.6  372.8 v
  190.7  375.5  192.1  375.5 v
  189.2  372.9  193.6  372.8 v
  187.6  370.2  189.9  370.2 v
  190.7  375.5  184.5  375.6 v
  189.2  372.9  186.1  372.9 v
  187.6  370.2  187.6  370.2 v
  183.3  375.6  184.5  375.6 v
  181.7  373.0  186.1  372.9 v
  180.2  370.3  187.6  370.2 v
  183.3  375.6  177.0  375.7 v
  181.7  373.0  178.5  373.0 v
  180.2  370.3  180.0  370.3 v
  175.8  375.7  177.0  375.7 v
  174.3  373.0  178.5  373.0 v
  172.8  370.4  180.0  370.3 v
  175.8  375.7  169.4  375.7 v
  174.3  373.0  171.0  373.1 v
  172.8  370.4  172.5  370.4 v
  168.3  375.7  169.4  375.7 v
  166.8  373.1  171.0  373.1 v
  165.3  370.5  172.5  370.4 v
  168.3  375.7  161.9  375.7 v
  166.8  373.1  163.4  373.1 v
  165.3  370.5  165.0  370.5 v
  160.8  375.8  161.9  375.7 v
  159.3  373.2  163.4  373.1 v
  157.8  370.6  165.0  370.5 v
  160.8  375.8  154.4  375.8 v
  159.3  373.2  155.9  373.2 v
  157.8  370.6  157.4  370.6 v
  153.4  375.8  154.4  375.8 v
  151.9  373.2  155.9  373.2 v
  150.4  370.6  157.4  370.6 v
  153.4  375.8  146.9  375.8 v
  151.9  373.2  148.4  373.2 v
  150.4  370.6  149.9  370.6 v
  145.9  375.9  146.9  375.8 v
  144.4  373.3  148.4  373.2 v
  142.9  370.7  149.9  370.6 v
  145.9  375.9  139.3  375.9 v
  144.4  373.3  140.8  373.3 v
  142.9  370.7  142.3  370.7 v
  138.4  375.9  139.3  375.9 v
  136.9  373.3  140.8  373.3 v
  135.4  370.8  142.3  370.7 v
  138.4  375.9  131.8  376.0 v
  136.9  373.3  133.3  373.4 v
  135.4  370.8  134.8  370.8 v
  130.9  376.0  131.8  376.0 v
  129.5  373.4  133.3  373.4 v
  128.0  370.8  134.8  370.8 v
  130.9  376.0  124.3  376.0 v
  129.5  373.4  125.8  373.4 v
  128.0  370.8  127.3  370.9 v
  273.7  370.1  271.7  367.4 v
  271.7  367.4  270.8  363.6 v
  261.8  368.6  261.5  363.6 v
  261.9  370.1  261.8  368.6 v
  256.0  370.1  255.8  369.0 v
  255.8  369.0  256.0  363.6 v
  251.5  363.9  251.5  363.6 v
  251.2  370.1  251.5  363.9 v
  247.0  369.0  247.6  363.6 v
  246.7  370.1  247.0  369.0 v
  242.2  370.1  243.6  364.1 v
  243.6  364.1  243.7  363.7 v
  238.3  367.1  239.1  363.7 v
  236.7  370.2  238.3  367.1 v
  231.1  367.6  233.2  363.7 v
  227.5  370.2  231.1  367.6 v
  206.7  370.2  203.1  369.4 v
  202.0  369.1  203.1  369.4 v
  202.0  369.1  195.6  369.4 v
  194.7  369.4  195.6  369.4 v
  189.9  370.2  194.7  369.4 v
  270.8  363.6  269.0  359.1 v
  269.0  359.1  268.8  357.1 v
  261.5  363.6  260.7  360.5 v
  260.7  360.5  260.5  357.1 v
  255.1  357.2  255.1  357.1 v
  256.0  363.6  255.1  357.2 v
  251.5  363.6  251.5  363.4 v
  251.5  363.4  251.2  357.2 v
  247.6  363.6  247.3  357.7 v
  247.3  357.7  247.3  357.2 v
  243.7  363.4  243.4  357.2 v
  243.7  363.7  243.7  363.4 v
  239.1  363.7  239.3  358.5 v
  239.3  358.5  239.2  357.2 v
  233.8  359.2  233.6  357.2 v
  233.2  363.7  233.8  359.2 v
  268.3  354.0  268.6  350.6 v
  268.8  357.1  268.3  354.0 v
  260.0  352.7  260.1  350.7 v
  260.5  357.1  260.0  352.7 v
  255.1  357.1  255.1  357.1 v
  255.1  357.1  255.2  350.7 v
  251.2  357.2  250.9  351.4 v
  250.9  351.4  250.9  350.7 v
  247.3  356.6  247.2  350.7 v
  247.3  357.2  247.3  356.6 v
  243.4  357.2  243.5  351.4 v
  243.5  351.4  243.4  350.7 v
  239.3  355.8  239.1  350.7 v
  239.2  357.2  239.3  355.8 v
  233.6  357.2  233.8  355.0 v
  233.8  355.0  233.3  350.7 v
  268.6  350.6  268.2  347.5 v
  268.2  347.5  268.6  344.2 v
  260.1  350.7  259.9  348.8 v
  259.9  348.8  260.2  344.2 v
  255.2  350.7  254.9  344.5 v
  254.9  344.5  254.9  344.2 v
  250.9  349.9  251.0  344.2 v
  250.9  350.7  250.9  349.9 v
  247.2  350.7  247.2  344.9 v
  247.2  344.9  247.1  344.2 v
  243.5  350.0  243.3  344.2 v
  243.4  350.7  243.5  350.0 v
  239.1  350.7  239.3  345.5 v
  239.3  345.5  239.2  344.2 v
  234.0  346.5  233.8  344.2 v
  233.3  350.7  234.0  346.5 v
  268.2  340.8  268.7  337.7 v
  268.6  344.2  268.2  340.8 v
  259.9  339.5  260.1  337.7 v
  260.2  344.2  259.9  339.5 v
  254.9  343.8  255.2  337.7 v
  254.9  344.2  254.9  343.8 v
  251.0  344.2  250.9  338.5 v
  250.9  338.5  250.9  337.7 v
  247.2  343.4  247.2  337.7 v
  247.1  344.2  247.2  343.4 v
  243.3  344.2  243.4  338.4 v
  243.4  338.4  243.4  337.7 v
  239.4  342.9  239.1  337.7 v
  239.2  344.2  239.4  342.9 v
  233.8  344.2  234.0  341.8 v
  234.0  341.8  233.4  337.7 v
  268.7  337.7  268.3  334.2 v
  268.3  334.2  268.8  331.2 v
  260.1  337.7  259.9  335.8 v
  259.9  335.8  260.3  331.2 v
  255.2  337.7  254.9  331.5 v
  254.9  331.5  254.9  331.2 v
  250.9  336.8  251.1  331.2 v
  250.9  337.7  250.9  336.8 v
  247.2  337.7  247.2  331.9 v
  247.2  331.9  247.2  331.2 v
  243.4  337.0  243.3  331.2 v
  243.4  337.7  243.4  337.0 v
  239.1  337.7  239.4  332.4 v
  239.4  332.4  239.3  331.2 v
  234.0  333.6  233.8  331.2 v
  233.4  337.7  234.0  333.6 v
  268.5  328.3  269.0  324.7 v
  268.8  331.2  268.5  328.3 v
  260.0  326.7  260.2  324.7 v
  260.3  331.2  260.0  326.7 v
  254.9  330.9  255.3  324.7 v
  254.9  331.2  254.9  330.9 v
  251.1  331.2  250.9  325.4 v
  250.9  325.4  250.9  324.7 v
  247.2  330.5  247.2  324.7 v
  247.2  331.2  247.2  330.5 v
  243.3  331.2  243.5  325.3 v
  243.5  325.3  243.4  324.7 v
  239.4  330.0  239.1  324.7 v
  239.3  331.2  239.4  330.0 v
  233.8  331.2  234.0  328.7 v
  234.0  328.7  233.5  324.7 v
  234.0  320.7  233.5  324.7 v
  239.3  318.2  239.4  319.4 v
  233.8  318.2  234.0  320.7 v
  243.5  324.1  243.4  324.7 v
  239.4  319.4  239.1  324.7 v
  247.1  318.2  247.2  318.9 v
  243.3  318.2  243.5  324.1 v
  250.9  323.9  250.9  324.7 v
  247.2  318.9  247.2  324.7 v
  254.9  318.2  254.9  318.5 v
  251.0  318.2  250.9  323.9 v
  254.9  318.5  255.3  324.7 v
  260.3  318.2  260.0  322.7 v
  260.0  322.7  260.2  324.7 v
  268.7  318.2  268.4  321.1 v
  268.4  321.1  269.0  324.7 v
  268.2  315.0  268.6  311.7 v
  268.7  318.2  268.2  315.0 v
  259.9  313.5  260.0  311.7 v
  260.3  318.2  259.9  313.5 v
  254.9  317.8  255.2  311.7 v
  254.9  318.2  254.9  317.8 v
  251.0  318.2  250.8  312.5 v
  250.8  312.5  250.8  311.7 v
  247.2  317.4  247.2  311.7 v
  247.1  318.2  247.2  317.4 v
  243.3  318.2  243.4  312.4 v
  243.4  312.4  243.4  311.7 v
  239.4  316.9  239.1  311.7 v
  239.3  318.2  239.4  316.9 v
  233.8  318.2  234.0  315.7 v
  234.0  315.7  233.4  311.7 v
  234.0  307.6  233.4  311.7 v
  239.2  305.2  239.3  306.5 v
  233.7  305.2  234.0  307.6 v
  243.4  311.0  243.4  311.7 v
  239.3  306.5  239.1  311.7 v
  247.1  305.2  247.1  306.0 v
  243.3  305.2  243.4  311.0 v
  250.8  310.8  250.8  311.7 v
  247.1  306.0  247.2  311.7 v
  254.9  305.2  254.8  305.6 v
  251.0  305.2  250.8  310.8 v
  254.8  305.6  255.2  311.7 v
  260.2  305.2  259.9  309.9 v
  259.9  309.9  260.0  311.7 v
  268.4  305.2  268.0  308.7 v
  268.0  308.7  268.6  311.7 v
  268.1  301.8  268.7  298.7 v
  268.4  305.2  268.1  301.8 v
  260.0  300.7  260.2  298.7 v
  260.2  305.2  260.0  300.7 v
  254.9  304.8  255.3  298.7 v
  254.9  305.2  254.9  304.8 v
  251.0  305.2  251.0  299.3 v
  251.0  299.3  251.0  298.7 v
  247.1  304.4  247.3  298.7 v
  247.1  305.2  247.1  304.4 v
  243.3  305.2  243.5  299.2 v
  243.5  299.2  243.5  298.7 v
  239.3  303.9  239.1  298.7 v
  239.2  305.2  239.3  303.9 v
  233.7  305.2  234.0  302.8 v
  234.0  302.8  233.4  298.7 v
  268.7  298.7  268.8  294.4 v
  268.8  294.4  269.3  292.2 v
  260.2  298.7  260.2  296.3 v
  260.2  296.3  260.8  292.2 v
  255.4  292.7  255.4  292.2 v
  255.3  298.7  255.4  292.7 v
  251.0  298.1  251.4  292.2 v
  251.0  298.7  251.0  298.1 v
  247.3  298.7  247.5  292.3 v
  247.5  292.3  247.5  292.2 v
  243.6  298.2  243.6  292.2 v
  243.5  298.7  243.6  298.2 v
  239.1  298.7  239.7  292.9 v
  239.7  292.9  239.6  292.2 v
  234.1  294.9  234.0  292.2 v
  233.4  298.7  234.1  294.9 v
  269.3  290.8  270.5  285.7 v
  269.3  292.2  269.3  290.8 v
  260.7  289.0  261.2  285.7 v
  260.8  292.2  260.7  289.0 v
  255.4  292.2  255.4  291.6 v
  255.4  291.6  255.9  285.7 v
  251.5  286.0  251.5  285.7 v
  251.4  292.2  251.5  286.0 v
  247.5  292.2  247.7  285.7 v
  244.0  286.0  244.0  285.7 v
  247.5  292.2  247.5  292.2 v
  243.6  292.2  244.0  286.0 v
  239.7  291.5  239.5  285.7 v
  239.6  292.2  239.7  291.5 v
  234.0  292.2  234.3  289.2 v
  234.3  289.2  233.8  285.7 v
  270.5  285.7  269.3  280.5 v
  269.3  280.5  269.4  279.2 v
  261.2  285.7  260.8  282.3 v
  260.8  282.3  260.9  279.2 v
  255.6  280.1  255.6  279.2 v
  255.9  285.7  255.6  280.1 v
  251.5  285.7  251.5  285.4 v
  251.5  285.4  251.6  279.2 v
  247.7  279.4  247.7  279.2 v
  247.7  285.7  247.7  279.4 v
  244.0  285.7  244.0  285.5 v
  244.0  285.5  243.7  279.2 v
  239.5  285.7  239.8  279.7 v
  239.8  279.7  239.7  279.2 v
  234.3  282.2  234.0  279.2 v
  233.8  285.7  234.3  282.2 v
  269.1  277.5  269.3  272.7 v
  269.4  279.2  269.1  277.5 v
  260.6  275.7  260.7  272.7 v
  260.9  279.2  260.6  275.7 v
  255.6  279.2  255.5  278.4 v
  255.5  278.4  255.6  272.7 v
  251.6  279.2  251.3  272.8 v
  247.7  279.2  247.7  279.0 v
  251.3  272.8  251.3  272.7 v
  247.7  279.0  247.5  272.7 v
  243.7  279.2  243.8  272.8 v
  243.8  272.8  243.8  272.7 v
  239.7  278.7  239.3  272.7 v
  239.7  279.2  239.7  278.7 v
  234.0  279.2  234.2  276.5 v
  234.2  276.5  233.5  272.7 v
  269.3  272.7  268.5  268.9 v
  268.5  268.9  268.7  266.2 v
  260.7  272.7  260.3  270.1 v
  260.3  270.1  260.5  266.2 v
  255.2  266.4  255.2  266.2 v
  255.6  272.7  255.2  266.4 v
  251.3  272.6  251.3  266.2 v
  251.3  272.7  251.3  272.6 v
  247.5  272.7  247.4  266.5 v
  247.4  266.5  247.4  266.2 v
  243.8  272.7  243.5  266.2 v
  243.8  272.7  243.8  272.7 v
  239.3  272.7  239.5  267.2 v
  239.5  267.2  239.4  266.2 v
  234.0  268.7  233.7  266.2 v
  233.5  272.7  234.0  268.7 v
  268.3  263.2  268.9  259.7 v
  268.7  266.2  268.3  263.2 v
  260.2  262.1  260.4  259.7 v
  260.5  266.2  260.2  262.1 v
  255.2  266.2  255.2  266.0 v
  255.2  266.0  255.4  259.7 v
  251.3  266.2  251.1  260.0 v
  251.1  260.0  251.1  259.7 v
  247.4  265.9  247.3  259.7 v
  247.4  266.2  247.4  265.9 v
  243.5  266.2  243.5  260.2 v
  243.5  260.2  243.5  259.7 v
  239.4  265.1  239.0  259.7 v
  239.4  266.2  239.4  265.1 v
  233.7  266.2  233.8  264.0 v
  233.8  264.0  233.0  259.7 v
  233.4  254.7  233.0  259.7 v
  239.0  253.1  239.2  254.7 v
  233.2  253.1  233.4  254.7 v
  243.5  259.2  243.5  259.7 v
  239.2  254.7  239.0  259.7 v
  247.3  253.1  247.3  253.5 v
  243.3  253.1  243.5  259.2 v
  251.1  259.4  251.1  259.7 v
  247.3  253.5  247.3  259.7 v
  251.3  253.1  251.1  259.4 v
  255.2  253.6  255.4  259.7 v
  260.6  253.0  260.2  257.1 v
  255.3  253.1  255.2  253.6 v
  260.2  257.1  260.4  259.7 v
  268.8  253.2  268.5  255.8 v
  268.5  255.8  268.9  259.7 v
  268.8  253.2  268.6  250.2 v
  260.6  253.0  260.4  249.7 v
  255.3  252.5  255.3  253.1 v
  251.3  253.1  251.3  246.9 v
  247.3  253.1  247.3  252.8 v
  243.6  246.7  243.3  253.1 v
  124.3  376.0  123.5  376.0 v
  125.8  373.4  122.0  373.5 v
  127.3  370.9  120.5  370.9 v
  123.5  376.0  116.8  376.1 v
  122.0  373.5  118.2  373.5 v
  120.5  370.9  119.7  370.9 v
  120.4  382.7  119.8  382.7 v
  121.4  381.1  118.9  381.1 v
  122.3  379.5  118.0  379.5 v
  123.2  377.9  117.1  377.9 v
  119.8  382.7  113.0  382.6 v
  118.9  381.1  113.9  381.0 v
  118.0  379.5  114.8  379.5 v
  117.1  377.9  115.7  377.9 v
  127.4  382.7  120.4  382.7 v
  126.4  381.1  121.4  381.1 v
  125.5  379.5  122.3  379.5 v
  124.6  377.9  123.2  377.9 v
   81.2  385.8   84.1  385.8 v
   84.1  385.8   88.6  385.9 v
   76.5  385.6   81.2  385.8 v
   73.8  385.6   76.5  385.6 v
   68.9  385.4   73.8  385.6 v
   66.4  385.4   68.9  385.4 v
   61.2  385.1   66.4  385.4 v
  239.0  253.1  239.2  251.4 v
  233.4  251.6  233.2  253.1 v
  122.1  386.6  125.7  386.6 v
  122.1  386.6  118.2  386.5 v
  116.0  376.1  116.8  376.1 v
  114.5  373.5  118.2  373.5 v
  113.1  371.0  119.7  370.9 v
  116.0  376.1  109.2  376.1 v
  114.5  373.5  110.7  373.6 v
  113.1  371.0  112.2  371.0 v
  112.3  382.6  113.0  382.6 v
  111.4  381.1  113.9  381.0 v
  110.5  379.5  114.8  379.5 v
  109.6  377.9  115.7  377.9 v
  112.3  382.6  105.5  382.6 v
  111.4  381.1  106.4  381.0 v
  110.5  379.5  107.3  379.5 v
  109.6  377.9  108.2  377.9 v
   94.2  376.2   93.6  376.2 v
   95.6  373.7   92.1  373.7 v
   97.1  371.2   90.7  371.2 v
   93.6  376.2   86.6  376.3 v
   92.1  373.7   88.1  373.8 v
   90.7  371.2   89.5  371.2 v
  101.1  376.2   94.2  376.2 v
   99.6  373.7   95.6  373.7 v
   98.1  371.2   97.1  371.2 v
  101.1  376.2  101.7  376.2 v
   99.6  373.7  103.2  373.6 v
   98.1  371.2  104.6  371.1 v
  108.5  376.1  101.7  376.2 v
  107.1  373.6  103.2  373.6 v
  105.6  371.1  104.6  371.1 v
  108.5  376.1  109.2  376.1 v
  107.1  373.6  110.7  373.6 v
  105.6  371.1  112.2  371.0 v
  105.5  382.6  104.8  382.6 v
  106.4  381.0  103.9  381.0 v
  107.3  379.5  103.0  379.5 v
  108.2  377.9  102.1  377.9 v
  104.8  382.6   98.0  382.5 v
  103.9  381.0   98.9  381.0 v
  103.0  379.5   99.8  379.5 v
  102.1  377.9  100.7  377.9 v
  103.4  386.3   99.3  386.1 v
   99.3  386.1   96.0  386.1 v
  106.9  386.3  103.4  386.3 v
  106.9  386.3  110.8  386.4 v
  114.5  386.4  110.8  386.4 v
  114.5  386.4  118.2  386.5 v
   97.2  382.5   98.0  382.5 v
   96.3  381.0   98.9  381.0 v
   95.5  379.5   99.8  379.5 v
   94.6  378.0  100.7  377.9 v
   97.2  382.5   90.6  382.5 v
   96.3  381.0   91.4  381.0 v
   95.5  379.5   92.3  379.5 v
   94.6  378.0   93.2  378.0 v
   91.7  386.0   96.0  386.1 v
   91.7  386.0   88.6  385.9 v
   89.7  382.5   90.6  382.5 v
   88.8  381.0   91.4  381.0 v
   88.0  379.5   92.3  379.5 v
   87.1  378.0   93.2  378.0 v
   89.7  382.5   83.1  382.4 v
   88.8  381.0   84.0  380.9 v
   88.0  379.5   84.8  379.5 v
   87.1  378.0   85.7  378.0 v
   86.1  376.3   86.6  376.3 v
   84.7  373.8   88.1  373.8 v
   83.2  371.3   89.5  371.2 v
   86.1  376.3   79.1  376.4 v
   84.7  373.8   80.5  373.8 v
   83.2  371.3   82.0  371.3 v
   78.7  376.4   79.1  376.4 v
   77.2  373.9   80.5  373.8 v
   75.8  371.4   82.0  371.3 v
   78.7  376.4   71.6  376.4 v
   77.2  373.9   73.0  373.9 v
   75.8  371.4   74.5  371.4 v
   82.2  382.4   83.1  382.4 v
   81.3  380.9   84.0  380.9 v
   80.5  379.5   84.8  379.5 v
   79.6  378.0   85.7  378.0 v
   82.2  382.4   75.6  382.4 v
   81.3  380.9   76.5  380.9 v
   80.5  379.5   77.3  379.4 v
   79.6  378.0   78.2  378.0 v
   71.2  376.4   71.6  376.4 v
   69.8  374.0   73.0  373.9 v
   68.3  371.5   74.5  371.4 v
   71.2  376.4   64.0  376.5 v
   69.8  374.0   65.5  374.0 v
   68.3  371.5   66.9  371.5 v
   74.6  382.4   75.6  382.4 v
   73.8  380.9   76.5  380.9 v
   72.9  379.5   77.3  379.4 v
   72.1  378.0   78.2  378.0 v
   74.6  382.4   68.2  382.3 v
   73.8  380.9   69.0  380.9 v
   72.9  379.5   69.8  379.4 v
   72.1  378.0   70.7  378.0 v
   67.1  382.3   68.2  382.3 v
   66.3  380.9   69.0  380.9 v
   65.4  379.5   69.8  379.4 v
   64.6  378.0   70.7  378.0 v
   67.1  382.3   60.7  382.3 v
   66.3  380.9   61.5  380.8 v
   65.4  379.5   62.3  379.4 v
   64.6  378.0   63.1  378.0 v
   59.6  382.3   60.7  382.3 v
   58.7  380.9   61.5  380.8 v
   57.9  379.5   62.3  379.4 v
   57.1  378.1   63.1  378.0 v
   59.6  382.3   53.3  382.2 v
   58.7  380.9   54.0  380.8 v
   57.9  379.5   54.8  379.4 v
   57.1  378.1   55.6  378.0 v
   52.0  382.2   53.3  382.2 v
   51.2  380.8   54.0  380.8 v
   50.4  379.5   54.8  379.4 v
   49.6  378.1   55.6  378.0 v
   52.0  382.2   45.8  382.1 v
   51.2  380.8   46.6  380.8 v
   50.4  379.5   47.4  379.4 v
   49.6  378.1   48.1  378.1 v
   44.5  382.1   45.8  382.1 v
   43.7  380.8   46.6  380.8 v
   43.0  379.5   47.4  379.4 v
   42.2  378.1   48.1  378.1 v
   44.5  382.1   38.4  382.1 v
   43.7  380.8   39.1  380.8 v
   43.0  379.5   39.9  379.4 v
   42.2  378.1   40.6  378.1 v
   63.7  376.5   64.0  376.5 v
   62.3  374.0   65.5  374.0 v
   60.9  371.6   66.9  371.5 v
   63.7  376.5   56.5  376.6 v
   62.3  374.0   57.9  374.1 v
   60.9  371.6   59.4  371.6 v
   56.3  376.6   56.5  376.6 v
   54.8  374.1   57.9  374.1 v
   53.4  371.6   59.4  371.6 v
   56.3  376.6   48.9  376.7 v
   54.8  374.1   50.4  374.2 v
   53.4  371.6   51.8  371.7 v
   48.8  376.7   48.9  376.7 v
   47.4  374.2   50.4  374.2 v
   46.0  371.7   51.8  371.7 v
   48.8  376.7   41.4  376.7 v
   47.4  374.2   42.8  374.2 v
   46.0  371.7   44.3  371.8 v
   41.4  376.7   41.4  376.7 v
   39.9  374.3   42.8  374.2 v
   38.5  371.8   44.3  371.8 v
   37.5  376.8   41.4  376.7 v
   39.9  374.3   35.3  374.3 v
   38.5  371.8   36.7  371.8 v
   32.5  374.4   35.3  374.3 v
   31.1  371.9   36.7  371.8 v
   32.5  374.4   27.7  374.4 v
   31.1  371.9   29.2  371.9 v
   25.0  374.4   27.7  374.4 v
   23.5  372.0   29.2  371.9 v
   25.0  374.4   20.1  374.5 v
   23.5  372.0   21.5  372.0 v
   17.0  374.5   20.1  374.5 v
   15.2  372.0   21.5  372.0 v
   18.4  376.9   11.5  376.7 v
   17.0  374.5   12.3  374.3 v
   15.2  372.0   13.1  371.9 v
   10.5  377.0   11.5  376.7 v
    8.8  375.2   12.3  374.3 v
    7.0  373.5   13.1  371.9 v
    6.6  378.2    5.0  378.1 v
   10.5  377.0    5.3  376.5 v
    8.8  375.2    5.6  374.9 v
    7.0  373.5    6.0  373.4 v
   37.0  382.1   38.4  382.1 v
   36.2  380.8   39.1  380.8 v
   35.5  379.5   39.9  379.4 v
   34.7  378.1   40.6  378.1 v
   33.9  376.8   37.5  376.8 v
   37.0  382.1   30.9  382.0 v
   36.2  380.8   31.7  380.7 v
   35.5  379.5   32.4  379.4 v
   34.7  378.1   33.1  378.1 v
   33.9  376.8   33.9  376.8 v
    0.7  118.5    6.6  116.1 v
    2.3  119.4    6.6  117.7 v
    4.0  120.3    6.6  119.2 v
    5.6  121.2    6.6  120.8 v
   10.1  116.4    6.6  116.1 v
    6.6  117.7   12.9  118.2 v
    6.6  119.2   10.4  119.6 v
    6.6  120.8    8.0  120.9 v
   13.1  114.6   10.1  116.4 v
   13.1  114.6   17.2  115.7 v
   37.3  384.1   38.2  384.1 v
  269.1  156.5  269.1  153.1 v
  269.1  153.1  269.2  149.0 v
  261.0  151.8  261.0  150.3 v
  260.8  157.9  261.0  151.8 v
  269.0  160.6  269.1  156.5 v
  269.0  160.6  269.0  163.9 v
  269.1  168.1  269.0  163.9 v
  269.1  168.1  269.1  171.5 v
  269.1  175.6  269.1  171.5 v
  269.1  175.6  269.1  179.0 v
  269.1  183.1  269.1  179.0 v
  260.8  157.9  260.8  159.2 v
  260.8  165.4  260.8  159.2 v
  269.2  145.5  269.2  149.0 v
  260.8  165.4  260.8  166.7 v
  269.2  145.5  269.3  141.6 v
  269.3  138.0  269.3  141.6 v
  261.1  144.4  261.1  142.7 v
  261.1  142.7  260.9  136.7 v
  269.3  138.0  268.9  133.8 v
  256.1  141.4  256.0  138.2 v
  256.2  145.5  256.1  141.4 v
  256.0  138.2  255.2  133.4 v
  260.8  172.9  260.8  166.7 v
  260.8  172.9  260.8  174.2 v
  256.2  145.5  256.1  149.0 v
  269.1  183.1  269.1  186.5 v
  269.1  190.6  269.1  186.5 v
  269.1  190.6  269.1  194.0 v
  268.9  133.8  268.7  130.8 v
  268.7  130.8  266.2  124.8 v
  261.0  150.3  261.1  144.4 v
  269.1  198.1  269.1  194.0 v
  269.1  198.1  269.1  201.5 v
  269.1  205.6  269.1  201.5 v
  255.9  153.2  256.1  149.0 v
  255.9  153.2  255.8  156.3 v
  255.7  160.8  255.8  156.3 v
  260.8  204.2  260.8  202.9 v
  260.8  210.4  260.8  204.2 v
  255.8  208.8  255.8  205.8 v
  255.8  205.8  255.8  201.3 v
  269.1  216.5  269.1  213.1 v
  269.1  213.1  269.1  209.0 v
  260.8  211.7  260.8  210.4 v
  260.8  217.9  260.8  211.7 v
  269.2  220.5  269.1  216.5 v
  269.1  205.6  269.1  209.0 v
  255.7  160.8  255.7  163.7 v
  255.7  168.3  255.7  163.7 v
  260.8  135.4  260.9  136.7 v
  255.7  168.3  255.8  171.3 v
  255.8  175.8  255.8  171.3 v
  252.0  146.6  251.8  140.6 v
  248.2  144.4  248.2  142.6 v
  255.8  175.8  255.8  178.8 v
  255.8  183.3  255.8  178.8 v
  259.7  131.9  260.8  135.4 v
  251.4  183.8  251.4  178.3 v
  247.5  181.5  247.5  180.5 v
  255.8  213.3  255.8  208.8 v
  255.8  213.3  255.8  216.3 v
  260.8  181.7  260.8  180.4 v
  260.8  180.4  260.8  174.2 v
  251.4  161.2  251.5  155.8 v
  247.4  159.0  247.5  158.1 v
  251.4  176.3  251.4  170.8 v
  247.5  174.0  247.5  173.1 v
  251.4  213.8  251.4  208.3 v
  247.5  211.5  247.5  210.6 v
  260.8  202.9  260.8  196.7 v
  251.4  206.3  251.4  200.8 v
  247.5  204.0  247.5  203.1 v
  259.7  131.9  259.0  128.9 v
  255.2  133.4  254.7  131.5 v
  259.0  128.9  258.2  127.7 v
  253.1  129.3  254.7  131.5 v
  260.8  195.4  260.8  196.7 v
  260.8  195.4  260.8  189.2 v
  260.8  187.9  260.8  189.2 v
  260.8  187.9  260.8  181.7 v
  255.8  183.3  255.8  186.3 v
  251.4  168.7  251.4  163.3 v
  247.4  166.4  247.4  165.6 v
  255.8  190.8  255.8  186.3 v
  255.8  190.8  255.8  193.8 v
  255.8  198.3  255.8  193.8 v
  255.8  198.3  255.8  201.3 v
  263.7  118.7  259.6  115.5 v
  266.2  124.7  263.7  118.7 v
  258.3  114.1  252.9  111.9 v
  259.6  115.5  258.3  114.1 v
  252.9  111.9  248.3  111.3 v
  255.8  123.1  252.8  120.6 v
  269.1  246.3  268.8  244.0 v
  268.4  238.1  268.4  236.3 v
  269.1  246.3  268.6  250.2 v
   29.5  382.0   30.9  382.0 v
   28.7  380.7   31.7  380.7 v
   27.9  379.4   32.4  379.4 v
   27.2  378.2   33.1  378.1 v
   26.4  376.9   33.9  376.8 v
   27.1  383.3   22.7  383.3 v
   29.5  382.0   23.5  382.0 v
   28.7  380.7   24.2  380.7 v
   27.9  379.4   24.9  379.4 v
   27.2  378.2   25.6  378.1 v
   26.4  376.9   26.3  376.8 v
   22.7  383.3   22.7  383.3 v
   21.9  382.0   23.5  382.0 v
   21.1  380.7   24.2  380.7 v
   20.3  379.5   24.9  379.4 v
   19.5  378.2   25.6  378.1 v
   18.7  376.9   26.3  376.8 v
   22.7  383.3   15.4  383.3 v
   21.9  382.0   16.1  382.0 v
   21.1  380.7   16.7  380.7 v
   20.3  379.5   17.4  379.5 v
   19.5  378.2   18.0  378.2 v
   18.7  376.9   18.7  376.9 v
   15.1  383.3   15.4  383.3 v
   14.2  382.1   16.1  382.0 v
   13.4  380.9   16.7  380.7 v
   12.5  379.6   17.4  379.5 v
   11.7  378.4   18.0  378.2 v
   18.7  376.9   18.4  376.9 v
   15.1  383.3    8.0  383.6 v
   14.2  382.1    8.7  382.3 v
   13.4  380.9    9.4  381.0 v
   12.5  379.6   10.1  379.7 v
   11.7  378.4   10.8  378.4 v
    6.8  383.6    8.0  383.6 v
    6.3  382.2    8.7  382.3 v
    5.8  380.9    9.4  381.0 v
    5.3  379.5   10.1  379.7 v
   10.8  378.4    6.6  378.2 v
    6.8  383.6    0.5  382.1 v
    6.3  382.2    1.7  381.2 v
    5.8  380.9    2.8  380.2 v
    5.3  379.5    4.0  379.2 v
    0.0  382.1    0.5  382.1 v
    0.0  381.1    1.7  381.2 v
    0.0  380.1    2.8  380.2 v
    0.0  379.1    4.0  379.2 v
    0.0  378.1    4.6  378.2 v
    0.0  377.2    3.1  377.2 v
    0.0  376.2    1.7  376.2 v
    0.0  375.2    0.2  375.2 v
    4.6  378.2    5.0  378.1 v
    3.1  377.2    5.3  376.5 v
    1.7  376.2    5.6  374.9 v
    0.2  375.2    6.0  373.4 v
  255.8  123.1  258.2  127.7 v
  266.2  124.8  266.2  124.8 v
  266.2  124.7  266.2  124.8 v
   13.1  118.2   12.9  118.2 v
   13.1  119.6   10.4  119.6 v
   13.1  121.0    8.0  120.9 v
   13.1  122.4    7.6  122.3 v
   13.1  123.8   10.2  123.8 v
   13.0  125.2   12.8  125.2 v
  251.4  178.3  251.4  176.3 v
  247.5  180.5  247.5  174.0 v
  243.4  179.1  243.4  175.4 v
  243.4  175.4  243.3  171.6 v
  238.9  176.5  238.8  170.6 v
  260.8  217.9  260.9  219.2 v
  260.8  225.4  260.9  219.2 v
   55.3  130.7   58.5  131.9 v
   62.0  130.9   58.5  131.9 v
   61.0  127.4   64.9  128.2 v
   62.0  130.9   64.9  131.5 v
   69.2  127.6   64.9  128.2 v
   64.9  131.5   67.5  131.2 v
   43.5  130.0   45.5  131.0 v
   47.7  130.2   45.5  131.0 v
   32.3  129.0   32.5  129.1 v
   32.7  129.0   32.5  129.1 v
   52.0  127.8   55.7  127.3 v
   52.0  131.2   55.3  130.7 v
   56.0  122.8   58.5  123.0 v
   52.7  124.7   58.5  125.3 v
   55.7  127.3   58.5  127.5 v
   52.0  127.8   48.6  127.1 v
   47.7  130.2   52.0  131.2 v
   61.0  122.9   58.5  123.0 v
   64.6  124.9   58.5  125.3 v
   58.5  127.5   61.0  127.4 v
   63.2  118.7   64.9  118.7 v
   59.5  120.8   64.9  120.8 v
   61.0  122.9   64.9  122.8 v
   64.6  124.9   64.9  124.9 v
   66.7  118.7   64.9  118.7 v
   70.4  120.8   64.9  120.8 v
   64.9  122.8   68.9  122.9 v
   64.9  124.9   65.3  124.9 v
   67.5  116.2   71.4  115.8 v
   66.7  118.7   71.4  118.2 v
   70.4  120.8   71.4  120.7 v
   71.4  123.1   68.9  122.9 v
   71.4  125.4   65.3  124.9 v
   71.4  127.8   69.2  127.6 v
   75.2  116.0   71.4  115.8 v
   71.4  118.2   76.4  118.5 v
   71.4  120.7   72.6  120.7 v
   73.2  112.9   77.9  112.0 v
   75.2  116.0   77.9  115.5 v
   74.1  122.9   71.4  123.1 v
   77.9  125.1   71.4  125.4 v
   71.4  127.8   73.5  127.7 v
   77.9  118.5   76.4  118.5 v
   77.9  120.7   72.6  120.7 v
   77.9  122.9   74.1  122.9 v
   77.9  125.1   77.9  125.1 v
   79.5  118.5   77.9  118.5 v
   83.3  120.7   77.9  120.7 v
   77.9  122.9   81.8  122.9 v
   77.9  125.1   78.0  125.1 v
   52.0  118.8   54.0  118.8 v
   52.0  120.8   57.5  120.8 v
   52.0  122.8   56.0  122.8 v
   52.0  124.7   52.7  124.7 v
   53.9  116.5   58.5  116.1 v
   54.0  118.8   58.5  118.4 v
   57.5  120.8   58.5  120.7 v
   52.0  118.8   49.9  118.8 v
   52.0  120.8   46.4  120.8 v
   47.9  122.8   52.0  122.8 v
   51.3  124.7   52.0  124.7 v
   62.6  116.3   58.5  116.1 v
   58.5  118.4   63.2  118.7 v
   58.5  120.7   59.5  120.8 v
   59.1  113.5   64.9  112.3 v
   62.6  116.3   64.9  115.8 v
   39.0  127.3   42.0  126.9 v
   39.0  130.8   43.5  130.0 v
   26.0  126.6   27.9  126.3 v
   26.0  130.3   32.3  129.0 v
   43.2  122.7   45.5  122.9 v
   40.1  124.5   45.5  125.1 v
   42.0  126.9   45.5  127.3 v
   36.4  126.6   39.0  127.3 v
   32.7  129.0   39.0  130.8 v
   69.8  113.0   64.9  112.3 v
   64.9  115.8   67.5  116.2 v
   26.0  126.6   24.5  126.1 v
   26.0  130.3   20.7  128.3 v
   47.9  122.8   45.5  122.9 v
   51.3  124.7   45.5  125.1 v
   45.5  127.3   48.6  127.1 v
   32.5  122.9   34.7  122.7 v
   32.5  124.9   37.9  124.5 v
   32.5  126.9   36.4  126.6 v
   32.5  122.9   30.5  122.6 v
   32.5  124.9   27.7  124.2 v
   27.9  126.3   32.5  126.9 v
   58.5  113.3   59.1  113.5 v
   57.9  113.6   58.5  113.3 v
   52.0  112.7   57.9  113.6 v
   52.0  116.2   53.9  116.5 v
   45.9  114.1   52.0  112.7 v
   50.2  116.6   52.0  116.2 v
   69.8  113.0   71.4  112.4 v
   71.4  112.4   73.2  112.9 v
   36.6  119.0   39.0  119.0 v
   33.4  120.9   39.0  120.9 v
   34.7  122.7   39.0  122.7 v
   37.9  124.5   39.0  124.5 v
   41.4  119.0   39.0  119.0 v
   44.6  120.9   39.0  120.9 v
   39.0  122.7   43.2  122.7 v
   39.0  124.5   40.1  124.5 v
   26.0  119.3   28.7  119.3 v
   26.0  120.9   31.6  120.9 v
   26.0  122.6   30.5  122.6 v
   26.0  124.2   27.7  124.2 v
   26.0  119.3   23.5  119.3 v
   26.0  120.9   20.7  120.9 v
   21.3  122.5   26.0  122.6 v
   24.2  124.2   26.0  124.2 v
   32.5  114.6   33.7  114.7 v
   32.5  116.6   37.9  117.1 v
   32.5  118.7   36.6  119.0 v
   32.5  120.8   33.4  120.9 v
   33.7  114.7   39.0  113.1 v
   37.9  117.1   39.0  116.8 v
   32.5  114.6   31.1  114.8 v
   32.5  116.6   26.4  117.6 v
   28.7  119.3   32.5  118.7 v
   31.6  120.9   32.5  120.8 v
   39.0  113.1   45.0  114.2 v
   39.0  116.8   40.2  117.0 v
   26.0  113.7   21.7  115.4 v
   26.0  117.5   25.7  117.6 v
   21.7  115.4   19.6  115.2 v
   25.7  117.6   19.6  117.1 v
   23.5  119.3   19.6  119.0 v
   20.7  120.9   19.6  120.8 v
   19.6  115.2   17.2  115.7 v
   13.4  118.2   19.6  117.1 v
   16.0  119.6   19.6  119.0 v
   18.5  121.0   19.6  120.8 v
   13.4  118.2   13.1  118.2 v
   16.0  119.6   13.1  119.6 v
   18.5  121.0   13.1  121.0 v
   18.1  122.4   13.1  122.4 v
   15.7  123.8   13.1  123.8 v
   13.3  125.2   13.0  125.2 v
   26.0  113.7   31.1  114.8 v
   26.0  117.5   26.4  117.6 v
  129.3  133.0  129.9  133.3 v
  130.6  133.0  129.9  133.3 v
  130.6  133.0  136.4  134.2 v
  141.5  133.4  142.9  133.9 v
  136.4  134.2  141.5  133.4 v
   19.6  122.7   21.3  122.5 v
   19.5  124.6   24.2  124.2 v
   19.5  126.5   24.5  126.1 v
   19.5  128.4   20.7  128.3 v
   19.6  122.7   18.1  122.4 v
   19.5  124.6   15.7  123.8 v
   19.5  126.5   13.3  125.2 v
   17.9  128.1   19.5  128.4 v
   17.9  128.1   13.0  129.6 v
   13.0  129.6    9.4  127.3 v
  144.4  133.5  142.9  133.9 v
  136.4  110.2  131.7  111.2 v
  131.7  111.2  129.9  111.0 v
  134.4  115.1  129.9  114.6 v
  136.4  110.2  141.4  111.0 v
  136.4  114.9  134.4  115.1 v
  136.4  117.7  130.6  118.1 v
  136.4  120.5  135.0  120.6 v
  130.6  118.1  129.9  118.1 v
  135.0  120.6  129.9  120.6 v
  133.4  123.1  129.9  123.1 v
  138.4  115.0  136.4  114.9 v
  136.4  117.7  142.3  118.0 v
  136.4  120.5  137.8  120.6 v
  141.4  111.0  142.9  110.8 v
  138.4  115.0  142.9  114.5 v
  144.3  111.0  142.9  110.8 v
  142.9  114.5  147.7  114.9 v
  144.3  111.0  149.4  110.0 v
  136.4  123.3  133.4  123.1 v
  136.4  126.0  130.9  125.7 v
  136.4  128.8  136.2  128.8 v
  139.5  123.2  136.4  123.3 v
  136.4  126.0  141.7  125.8 v
  136.4  128.8  136.6  128.8 v
  142.3  118.0  142.9  118.0 v
  137.8  120.6  142.9  120.6 v
  139.5  123.2  142.9  123.2 v
  143.5  118.0  142.9  118.0 v
  148.0  120.6  142.9  120.6 v
  142.9  123.2  146.3  123.2 v
  147.7  114.9  149.4  114.8 v
  143.5  118.0  149.4  117.6 v
  148.0  120.6  149.4  120.5 v
  151.1  114.9  149.4  114.8 v
  149.4  117.6  155.4  117.9 v
  149.4  120.5  150.8  120.6 v
  149.4  123.3  146.3  123.2 v
  149.4  126.1  144.1  125.9 v
  155.9  117.9  155.4  117.9 v
  155.9  120.5  150.8  120.6 v
  155.9  123.2  152.5  123.2 v
  152.5  123.2  149.4  123.3 v
  149.4  126.1  154.5  125.9 v
  155.9  126.1  154.5  125.9 v
  155.9  129.6  149.5  129.0 v
  127.9  111.3  123.4  110.5 v
  156.3  117.9  155.9  117.9 v
  160.9  120.5  155.9  120.5 v
  155.9  123.2  159.2  123.2 v
  160.9  114.7  162.4  114.7 v
  156.3  117.9  162.4  117.6 v
  160.9  120.5  162.4  120.5 v
  157.3  126.0  155.9  126.1 v
  155.9  129.6  161.9  129.2 v
  162.4  129.3  161.9  129.2 v
  162.4  134.6  158.0  133.9 v
  162.4  123.3  159.2  123.2 v
  162.4  126.2  157.3  126.0 v
  154.8  110.8  155.9  110.6 v
  151.1  114.9  155.9  114.3 v
  129.9  118.1  129.2  118.1 v
  129.9  120.6  124.8  120.6 v
  126.4  123.1  129.9  123.1 v
  126.4  123.1  123.4  123.2 v
  128.9  125.7  123.4  125.9 v
  123.9  128.6  123.4  128.6 v
  100.8  111.9   97.4  111.3 v
  123.4  115.1  125.7  115.2 v
  123.4  117.8  129.2  118.1 v
  123.4  120.5  124.8  120.6 v
  123.4  115.1  121.1  115.2 v
  117.8  118.2  123.4  117.8 v
  122.1  120.6  123.4  120.5 v
  127.9  111.3  129.9  111.0 v
  125.7  115.2  129.9  114.6 v
  117.8  118.2  116.9  118.2 v
  122.1  120.6  116.9  120.6 v
  120.5  123.1  116.9  123.1 v
  123.4  123.2  120.5  123.1 v
  123.4  125.9  117.7  125.6 v
  123.4  128.6  122.9  128.6 v
  117.7  125.6  116.9  125.7 v
  122.9  128.6  116.9  129.1 v
  117.0  132.6  116.9  132.6 v
  149.3  129.0  149.4  129.0 v
  144.4  133.5  149.4  134.4 v
  144.1  125.9  142.9  126.0 v
  149.3  129.0  142.9  129.5 v
  153.9  133.8  155.9  134.4 v
  149.4  110.0  154.8  110.8 v
  162.4  109.7  156.9  110.7 v
  162.4  109.7  168.2  110.5 v
  142.9  126.0  141.7  125.8 v
  142.9  129.5  136.6  128.8 v
  251.4  163.3  251.4  161.2 v
  247.4  165.6  247.4  159.0 v
  243.3  164.0  243.3  160.5 v
  243.3  160.5  243.4  156.6 v
  238.7  161.4  239.1  155.4 v
  238.7  163.1  238.7  161.4 v
  232.5  165.3  232.7  159.1 v
  238.7  163.1  238.8  169.0 v
  238.8  170.6  238.8  169.0 v
  232.7  159.1  232.8  157.9 v
  243.3  164.0  243.3  168.0 v
  232.9  173.0  232.6  166.6 v
  232.9  173.9  232.9  173.0 v
  232.6  166.6  232.5  165.3 v
  233.0  180.6  233.0  181.4 v
  233.0  181.4  233.0  188.1 v
  238.9  184.0  238.9  185.5 v
  233.0  188.1  232.9  188.9 v
  232.8  157.9  233.7  154.3 v
  239.2  154.2  239.1  155.4 v
  234.1  151.1  233.7  154.3 v
  238.9  178.0  238.9  176.5 v
  233.0  180.6  232.9  173.9 v
  238.9  178.0  238.9  184.0 v
  243.4  179.1  243.4  182.9 v
  243.4  182.9  243.4  186.6 v
  251.4  183.8  251.4  185.8 v
  247.5  181.5  247.5  188.1 v
  251.4  185.8  251.4  191.3 v
  247.5  188.1  247.5  189.0 v
  243.4  190.4  243.4  186.6 v
   27.1  383.3   30.0  383.6 v
   30.4  383.6   30.0  383.6 v
  251.4  208.3  251.4  206.3 v
  247.5  210.6  247.5  204.0 v
  243.4  209.1  243.4  205.4 v
  243.4  205.4  243.4  201.6 v
  238.9  206.5  238.9  200.5 v
  243.4  212.9  243.4  209.1 v
  238.9  214.0  238.9  208.0 v
  238.9  208.0  238.9  206.5 v
  232.9  210.6  233.0  203.9 v
  233.0  203.9  233.0  203.1 v
  232.9  211.4  232.9  210.6 v
  232.9  211.4  232.9  218.0 v
  232.9  219.0  232.9  218.0 v
  238.9  214.0  238.9  215.5 v
  238.9  215.5  238.9  221.5 v
  238.9  223.0  238.9  221.5 v
  243.4  216.6  243.4  220.4 v
  232.9  219.0  232.9  225.6 v
  232.9  226.5  232.9  225.6 v
  243.4  220.4  243.4  224.1 v
  251.5  221.3  251.5  223.3 v
  247.5  219.0  247.5  225.6 v
  251.4  215.8  251.5  221.3 v
  247.5  218.1  247.5  219.0 v
  255.8  216.3  255.8  220.8 v
  255.8  220.8  255.8  223.8 v
  251.4  215.8  251.4  213.8 v
  247.5  218.1  247.5  211.5 v
  243.4  216.6  243.4  212.9 v
  255.7  228.5  255.8  223.8 v
  251.5  223.3  251.4  228.8 v
  247.5  225.6  247.5  226.5 v
  251.4  231.1  251.4  228.8 v
  247.5  233.4  247.5  226.5 v
  251.4  231.1  251.3  236.8 v
  247.5  233.4  247.5  234.1 v
  243.4  228.1  243.4  224.1 v
  243.4  228.1  243.4  231.7 v
  243.5  236.2  243.4  231.7 v
  238.9  229.2  238.9  223.0 v
  239.2  237.9  238.9  230.6 v
  239.2  238.9  239.2  237.9 v
  233.6  240.2  233.6  234.8 v
   81.0  115.9   84.4  115.6 v
   79.5  118.5   84.4  118.1 v
   83.3  120.7   84.4  120.6 v
    6.6  122.4    7.6  122.3 v
    6.5  124.2   10.2  123.8 v
    6.5  125.9   12.8  125.2 v
    6.5  127.7    9.4  127.3 v
  116.9  125.7  116.2  125.6 v
  116.9  129.1  111.3  128.4 v
  116.8  132.6  116.9  132.6 v
  190.8  135.0  194.9  136.1 v
  188.4  129.9  189.9  129.7 v
  188.4  135.3  190.8  135.0 v
  192.8  126.3  194.9  126.5 v
  189.9  129.7  194.9  130.2 v
  198.9  135.0  194.9  136.1 v
  199.8  129.8  201.3  130.0 v
  198.9  135.0  201.3  135.3 v
  194.9  126.5  197.0  126.4 v
  194.9  130.2  199.8  129.8 v
  197.9  123.4  201.3  123.5 v
  197.0  126.4  201.3  126.5 v
  204.5  123.2  201.3  123.5 v
  201.3  126.5  206.2  126.1 v
  194.9  117.7  194.9  117.7 v
  194.9  120.5  199.8  120.5 v
  194.9  123.4  197.9  123.4 v
  203.0  120.4  207.8  120.3 v
  204.5  123.2  207.8  123.1 v
  201.3  114.3  202.0  114.3 v
  201.3  117.3  207.5  117.4 v
  201.3  120.4  203.0  120.4 v
  188.4  129.9  187.0  129.7 v
  185.5  134.7  188.4  135.3 v
  185.5  134.7  181.9  135.4 v
  181.9  126.4  183.8  126.2 v
  181.9  130.0  187.0  129.7 v
  202.7  129.7  201.3  130.0 v
  201.3  135.3  204.6  134.6 v
  206.2  126.1  207.8  126.2 v
  202.7  129.7  207.8  129.8 v
  209.2  126.0  207.8  126.2 v
  214.0  128.8  207.8  129.8 v
  207.8  134.7  204.6  134.6 v
  194.9  117.7  194.8  117.7 v
  194.9  120.5  189.8  120.5 v
  191.8  123.4  194.9  123.4 v
  191.8  123.4  188.4  123.5 v
  192.8  126.3  188.4  126.5 v
  188.4  123.5  185.0  123.3 v
  183.8  126.2  188.4  126.5 v
  181.9  117.7  182.0  117.7 v
  181.9  120.5  186.9  120.5 v
  181.9  123.3  185.0  123.3 v
  187.4  114.5  188.4  114.4 v
  182.0  117.7  188.4  117.4 v
  186.9  120.5  188.4  120.5 v
  181.9  135.4  178.7  134.5 v
  209.6  133.8  207.8  134.7 v
  181.9  117.7  181.7  117.7 v
  181.9  120.5  176.9  120.5 v
  178.7  123.3  181.9  123.3 v
  178.7  123.3  175.4  123.4 v
  180.1  126.2  175.4  126.3 v
  175.4  114.5  176.6  114.6 v
  175.4  117.5  181.7  117.7 v
  175.4  120.4  176.9  120.5 v
  181.5  110.3  181.9  110.3 v
  176.6  114.6  181.9  114.0 v
  189.3  114.5  188.4  114.4 v
  188.4  117.4  194.8  117.7 v
  188.4  120.5  189.8  120.5 v
  189.3  114.5  194.9  113.9 v
  175.4  123.4  172.2  123.2 v
  170.5  126.1  175.4  126.3 v
  170.5  126.1  168.9  126.2 v
  174.5  129.4  168.9  129.8 v
  175.4  114.5  174.2  114.6 v
  169.2  117.8  175.4  117.5 v
  173.9  120.5  175.4  120.4 v
  169.2  117.8  168.9  117.8 v
  173.9  120.5  168.9  120.5 v
  172.2  123.2  168.9  123.2 v
  168.9  117.8  168.6  117.8 v
  168.9  120.5  163.9  120.5 v
  165.6  123.2  168.9  123.2 v
  168.9  110.5  169.5  110.5 v
  168.9  114.2  174.2  114.6 v
  168.9  110.5  168.2  110.5 v
  163.8  114.7  168.9  114.2 v
  182.2  110.3  181.9  110.3 v
  181.9  114.0  187.4  114.5 v
  182.2  110.3  188.4  109.3 v
  194.9  113.9  200.6  114.3 v
  194.9  110.1  201.3  109.1 v
  201.3  114.3  200.6  114.3 v
  201.3  117.3  194.9  117.7 v
  201.3  120.4  199.8  120.5 v
  194.9  110.1  194.9  110.1 v
  168.9  126.2  167.3  126.0 v
  162.9  129.2  168.9  129.8 v
  194.8  110.1  188.4  109.3 v
  194.8  110.1  194.9  110.1 v
  207.1  109.7  201.3  109.1 v
  207.1  109.7  207.8  109.5 v
  207.8  109.5  208.6  109.7 v
  175.4  129.5  174.5  129.4 v
  175.4  134.9  171.6  134.2 v
  207.8  113.6  202.0  114.3 v
  207.8  117.4  207.5  117.4 v
  207.8  113.6  214.2  114.0 v
  207.8  117.4  208.3  117.4 v
  214.3  108.8  208.6  109.7 v
  219.4  109.3  214.3  108.8 v
  220.8  109.0  219.4  109.3 v
  220.8  109.0  222.3  109.3 v
  214.3  113.9  214.2  114.0 v
  214.3  116.9  208.3  117.4 v
  214.3  119.9  212.1  120.1 v
  212.1  120.1  207.8  120.3 v
  211.7  122.9  207.8  123.1 v
  214.3  122.9  211.7  122.9 v
  214.3  125.8  209.2  126.0 v
  214.3  128.8  214.0  128.8 v
  216.5  122.7  214.3  122.9 v
  220.8  125.3  214.3  125.8 v
  214.3  128.8  214.8  128.8 v
  214.4  113.9  214.3  113.9 v
  219.7  117.0  214.3  116.9 v
  214.3  119.9  216.9  119.9 v
  214.4  113.9  220.8  113.3 v
  219.7  117.0  220.8  116.9 v
  227.2  113.8  220.8  113.3 v
  220.8  116.9  222.1  117.0 v
  222.3  109.3  227.3  108.7 v
  227.2  113.8  227.4  113.8 v
  232.7  109.6  227.3  108.7 v
  227.4  113.8  227.5  113.8 v
  232.7  109.6  233.8  109.3 v
  233.8  109.3  235.0  109.5 v
  220.8  119.8  216.9  119.9 v
  220.8  122.6  216.5  122.7 v
  220.8  125.3  220.8  125.3 v
  224.5  119.9  220.8  119.8 v
  220.8  122.6  225.6  122.7 v
  220.8  125.3  220.9  125.3 v
  227.4  116.9  222.1  117.0 v
  227.4  119.8  224.5  119.9 v
  233.8  117.7  227.4  116.9 v
  227.4  119.8  230.0  120.2 v
  233.9  113.8  227.5  113.8 v
  234.1  117.7  233.8  117.7 v
  233.9  113.8  238.4  114.5 v
  234.1  117.7  234.4  117.8 v
  235.0  109.5  240.0  109.1 v
  244.7  110.8  240.0  109.1 v
  245.1  116.0  240.3  115.0 v
  243.8  120.4  242.9  120.2 v
  246.4  110.6  244.7  110.8 v
  240.3  115.0  238.4  114.5 v
  242.9  120.2  234.4  117.8 v
  175.4  129.5  176.3  129.4 v
  175.4  134.9  178.7  134.5 v
  155.9  134.4  158.0  133.9 v
  234.2  120.9  230.0  120.2 v
  234.3  123.9  230.0  123.3 v
  230.0  123.3  227.4  122.8 v
  232.9  126.8  227.4  125.9 v
  228.6  129.1  227.4  128.9 v
  234.2  120.9  240.6  122.9 v
  234.3  123.9  236.9  124.7 v
  110.4  123.2  113.3  123.1 v
  110.4  125.8  116.2  125.6 v
  110.4  128.4  111.3  128.4 v
  110.4  123.2  107.6  123.0 v
  104.5  125.4  110.4  125.8 v
  109.5  128.4  110.4  128.4 v
  116.0  118.2  116.9  118.2 v
  111.7  120.6  116.9  120.6 v
  113.3  123.1  116.9  123.1 v
  110.4  115.3  113.0  115.4 v
  110.4  117.9  116.0  118.2 v
  110.4  120.6  111.7  120.6 v
  104.5  125.4  103.9  125.5 v
  109.5  128.4  103.9  128.9 v
  104.5  132.3  103.9  132.3 v
  103.9  125.5  103.4  125.4 v
  103.9  128.9   98.6  128.2 v
  103.2  132.2  103.9  132.3 v
  103.2  132.2   97.4  133.4 v
   97.4  123.2  100.3  123.0 v
   97.4  125.7  103.4  125.4 v
   97.4  128.2   98.6  128.2 v
   97.4  123.2   94.7  123.0 v
   91.2  125.3   97.4  125.7 v
   96.1  128.2   97.4  128.2 v
   90.9  118.4   92.2  118.4 v
   90.9  120.7   96.2  120.7 v
   90.9  123.0   94.7  123.0 v
   90.9  118.4   89.6  118.4 v
   90.9  120.7   85.6  120.7 v
   87.2  123.0   90.9  123.0 v
   87.2  123.0   84.4  123.1 v
   90.7  125.3   84.4  125.6 v
   86.1  128.0   84.4  128.0 v
   84.4  123.1   81.8  122.9 v
   84.4  125.6   78.0  125.1 v
   82.7  127.9   84.4  128.0 v
   90.9  125.3   90.7  125.3 v
   90.9  128.7   86.1  128.0 v
   90.9  132.1   89.6  131.9 v
   89.6  131.9   84.4  133.0 v
   91.2  125.3   90.9  125.3 v
   96.1  128.2   90.9  128.7 v
   90.9  132.1   92.1  132.0 v
   97.4  133.4   92.1  132.0 v
   84.4  133.0   79.7  131.6 v
   77.9  128.4   82.7  127.9 v
   77.9  131.8   79.7  131.6 v
  114.4  111.6  116.9  111.2 v
  113.0  115.4  116.9  114.8 v
  119.2  111.5  116.9  111.2 v
  116.9  114.8  121.1  115.2 v
  119.2  111.5  123.4  110.5 v
  102.8  118.3  103.9  118.3 v
   98.7  120.7  103.9  120.6 v
  100.3  123.0  103.9  123.0 v
  105.0  118.3  103.9  118.3 v
  109.1  120.7  103.9  120.6 v
  103.9  123.0  107.6  123.0 v
   94.4  115.6   97.4  115.4 v
   92.2  118.4   97.4  118.0 v
   96.2  120.7   97.4  120.6 v
  100.3  115.6   97.4  115.4 v
   97.4  118.0  102.8  118.3 v
   97.4  120.6   98.7  120.7 v
   90.9  111.7   94.3  112.1 v
   90.9  115.3   94.4  115.6 v
   90.9  111.7   87.1  112.4 v
   87.7  115.8   90.9  115.3 v
   87.7  115.8   84.4  115.6 v
   89.6  118.4   84.4  118.1 v
   85.6  120.7   84.4  120.6 v
   94.3  112.1   97.4  111.3 v
  100.8  111.9  103.9  111.5 v
  100.3  115.6  103.9  115.0 v
  106.8  111.8  103.9  111.5 v
  103.9  115.0  107.7  115.4 v
  106.8  111.8  110.4  110.9 v
  110.4  110.9  114.4  111.6 v
  110.4  115.3  107.7  115.4 v
  110.4  117.9  105.0  118.3 v
  110.4  120.6  109.1  120.7 v
  110.4  133.7  104.5  132.3 v
  116.8  132.6  110.4  133.7 v
   71.4  132.5   67.5  131.2 v
   75.9  131.5   71.4  132.5 v
  168.9  134.9  171.6  134.2 v
  129.9  125.8  128.9  125.7 v
  129.9  129.3  123.9  128.6 v
  130.9  125.7  129.9  125.8 v
  136.2  128.8  129.9  129.3 v
  155.9  110.6  156.9  110.7 v
  155.9  114.3  160.9  114.7 v
   45.5  114.1   45.0  114.2 v
   45.5  116.3   40.2  117.0 v
   45.5  118.5   41.4  119.0 v
   45.5  120.8   44.6  120.9 v
   45.9  114.1   45.5  114.1 v
   50.2  116.6   45.5  116.3 v
   45.5  118.5   49.9  118.8 v
   45.5  120.8   46.4  120.8 v
   51.8  384.8   45.9  384.5 v
   53.6  384.8   51.8  384.8 v
   84.4  111.8   82.0  112.5 v
   82.0  112.5   77.9  112.0 v
   81.0  115.9   77.9  115.5 v
   84.4  111.8   87.1  112.4 v
  243.4  190.4  243.4  194.1 v
  243.4  197.9  243.4  194.1 v
  243.4  197.9  243.4  201.6 v
   59.1  385.1   61.2  385.1 v
   53.6  384.8   59.1  385.1 v
  251.8  140.6  251.6  138.8 v
  248.2  142.6  247.2  136.2 v
  250.9  133.8  251.6  138.8 v
  247.2  135.8  247.2  136.2 v
  244.2  141.9  243.6  137.7 v
  250.9  133.8  249.1  130.2 v
  246.9  135.3  247.2  135.8 v
  244.3  144.9  244.2  141.9 v
  246.9  135.3  244.5  130.1 v
  242.7  124.1  246.5  127.3 v
  241.6  127.7  244.5  130.1 v
  240.6  131.5  243.6  137.7 v
  240.6  131.5  240.5  131.3 v
  239.8  139.1  236.6  133.4 v
  251.4  126.0  253.1  129.3 v
  248.3  128.6  249.1  130.2 v
  234.2  127.4  240.5  131.3 v
  234.0  131.8  236.6  133.4 v
  240.0  139.7  239.8  139.1 v
  234.9  142.5  233.8  139.4 v
  233.8  139.4  232.0  135.9 v
   44.5  384.5   45.9  384.5 v
   38.2  384.1   44.5  384.5 v
   37.3  384.1   30.4  383.6 v
    6.6  122.4    5.8  122.1 v
    6.5  124.2    4.0  123.0 v
    6.5  125.9    2.1  123.9 v
    6.5  127.7    0.3  124.8 v
   77.9  128.4   73.5  127.7 v
   77.9  131.8   75.9  131.5 v
  123.4  134.0  117.0  132.6 v
  123.4  134.0  129.3  133.0 v
  175.4  109.5  169.5  110.5 v
  175.4  109.5  181.5  110.3 v
  268.8  244.0  268.4  238.1 v
  251.4  193.3  251.4  191.3 v
  247.5  195.6  247.5  189.0 v
  149.5  129.0  149.4  129.0 v
  153.9  133.8  149.4  134.4 v
  245.1  116.0  250.3  118.1 v
  243.8  120.4  244.8  120.8 v
  246.4  110.6  248.3  111.3 v
  209.6  133.8  214.3  133.8 v
  219.7  132.5  214.3  133.8 v
  214.8  128.8  220.8  128.9 v
  219.7  132.5  220.8  132.6 v
  226.0  128.8  220.8  128.9 v
  220.8  132.6  222.2  132.5 v
  227.4  134.1  222.2  132.5 v
  225.6  122.7  227.4  122.8 v
  220.9  125.3  227.4  125.9 v
  226.0  128.8  227.4  128.9 v
  243.6  246.4  243.6  246.7 v
  239.0  246.4  239.2  251.4 v
  243.6  246.4  243.6  246.2 v
  239.3  240.5  239.0  246.4 v
  247.4  246.4  247.3  252.8 v
  247.4  246.4  247.5  241.1 v
  232.7  246.0  233.4  251.6 v
  232.7  246.0  233.6  241.2 v
  239.2  238.9  239.3  240.5 v
  233.6  240.2  233.6  241.2 v
  251.3  239.4  251.3  245.7 v
  247.5  240.6  247.5  241.1 v
  251.3  239.4  251.3  236.8 v
  247.5  240.6  247.5  234.1 v
  243.5  239.6  243.5  236.2 v
  255.6  246.4  255.3  252.5 v
  251.3  246.4  251.3  246.9 v
  255.6  246.4  255.4  241.2 v
  251.3  245.7  251.3  246.4 v
  260.8  246.1  260.4  249.7 v
  260.4  242.0  260.8  246.1 v
  260.3  233.5  260.3  233.5 v
  163.8  114.7  162.4  114.7 v
  162.4  117.6  168.6  117.8 v
  162.4  120.5  163.9  120.5 v
  234.2  127.4  232.9  126.8 v
  234.0  131.8  228.6  129.1 v
  181.9  126.4  180.1  126.2 v
  181.9  130.0  176.3  129.4 v
  165.6  123.2  162.4  123.3 v
  162.4  126.2  167.3  126.0 v
  220.8  141.5  220.8  141.5 v
  243.6  246.2  243.5  239.6 v
  260.4  242.0  260.5  240.0 v
  255.4  241.2  255.5  238.9 v
  268.4  236.3  268.7  231.1 v
  260.3  233.5  260.3  233.5 v
  260.3  233.5  260.8  226.6 v
  255.7  231.1  255.7  228.5 v
  268.7  228.4  268.7  231.1 v
  268.7  228.4  269.1  223.9 v
  269.2  220.5  269.1  223.9 v
  243.3  168.0  243.3  171.6 v
  238.9  200.5  238.9  199.0 v
  238.9  193.0  238.9  199.0 v
  220.8  141.5  220.8  141.5 v
  232.9  196.4  233.0  203.1 v
  243.7  152.8  243.4  156.6 v
  243.7  152.8  244.0  149.4 v
  251.6  153.8  251.5  155.8 v
  247.8  151.7  247.5  158.1 v
  244.3  144.9  244.0  149.4 v
  227.4  134.1  232.0  135.9 v
  251.9  148.0  252.0  146.6 v
  247.9  150.3  248.2  144.4 v
  240.0  139.7  240.1  147.2 v
  234.9  142.5  235.0  143.9 v
  240.1  147.2  240.1  147.2 v
  234.2  150.6  235.0  143.9 v
  251.4  200.8  251.4  198.8 v
  247.5  203.1  247.5  196.5 v
  251.4  170.8  251.4  168.7 v
  247.5  173.1  247.4  166.4 v
  220.8  141.5  220.8  141.5 v
  220.8  141.5  220.8  141.5 v
  255.7  231.1  255.5  237.4 v
  238.9  191.5  238.9  185.5 v
  238.9  193.0  238.9  191.5 v
  220.8  141.5  220.8  141.5 v
  220.8  141.5  220.8  141.5 v
  251.4  198.8  251.4  193.3 v
  247.5  196.5  247.5  195.6 v
  233.5  233.5  233.5  233.7 v
  232.9  226.5  233.5  233.5 v
  238.9  229.2  238.9  230.6 v
  251.6  153.8  251.9  148.0 v
  247.8  151.7  247.9  150.3 v
  239.2  154.2  240.1  147.2 v
  234.1  151.1  234.2  150.6 v
  233.6  234.8  233.5  233.7 v
  232.9  195.6  232.9  196.4 v
  232.9  188.9  232.9  195.6 v
  251.4  126.0  246.6  122.5 v
  246.5  127.3  248.3  128.6 v
  162.9  129.2  162.4  129.3 v
  162.4  134.6  166.3  134.1 v
  260.5  240.0  260.3  233.5 v
  255.5  238.9  255.5  237.4 v
  260.8  226.6  260.8  225.4 v
  168.9  134.9  166.3  134.1 v
  252.8  120.6  250.3  118.1 v
  246.6  122.5  244.8  120.8 v
  240.6  122.9  242.7  124.1 v
  236.9  124.7  241.6  127.7 v
    0.0    0.0    0.0    7.5 v
    0.0    7.5    0.0   15.1 v
    0.0   15.1    0.0   22.6 v
    0.0   22.6    0.0   30.1 v
    0.0   30.1    0.0   37.6 v
    0.0   37.6    0.0   45.1 v
    0.0   45.1    0.0   52.6 v
    0.0   52.6    0.0   60.0 v
    0.0   60.0    0.0   67.5 v
    0.0   67.5    0.0   74.9 v
    0.0   74.9    0.0   82.3 v
    0.0   82.3    0.0   89.6 v
    0.0   89.6    0.0   96.9 v
    0.0   96.9    0.0  104.1 v
    0.0  104.1    0.0  111.2 v
    0.0  111.2    0.0  118.1 v
    0.0  118.1    0.0  125.0 v
    0.0  125.0    0.0  132.5 v
    0.0  132.5    0.0  140.1 v
    0.0  140.1    0.0  147.6 v
    0.0  147.6    0.0  155.1 v
    0.0  155.1    0.0  162.6 v
    0.0  162.6    0.0  170.1 v
    0.0  170.1    0.0  177.6 v
    0.0  177.6    0.0  185.1 v
    0.0  185.1    0.0  192.6 v
    0.0  192.6    0.0  200.1 v
    0.0  200.1    0.0  207.6 v
    0.0  207.6    0.0  215.1 v
    0.0  215.1    0.0  222.6 v
    0.0  222.6    0.0  230.1 v
    0.0  230.1    0.0  237.6 v
    0.0  237.6    0.0  245.1 v
    0.0  245.1    0.0  252.6 v
    0.0  252.6    0.0  260.1 v
    0.0  260.1    0.0  267.6 v
    0.0  267.6    0.0  275.2 v
    0.0  275.2    0.0  282.7 v
    0.0  282.7    0.0  290.2 v
    0.0  290.2    0.0  297.7 v
    0.0  297.7    0.0  305.1 v
    0.0  305.1    0.0  312.6 v
    0.0  312.6    0.0  320.0 v
    0.0  320.0    0.0  327.4 v
    0.0  327.4    0.0  334.7 v
    0.0  334.7    0.0  341.8 v
    0.0  341.8    0.0  348.9 v
    0.0  348.9    0.0  355.8 v
    0.0  355.8    0.0  362.4 v
    0.0  362.4    0.0  368.8 v
    0.0  368.8    0.0  375.0 v
    0.0  375.0    0.0  382.5 v
    0.0  382.5    0.0  390.1 v
    0.0  390.1    0.0  397.6 v
    0.0  397.6    0.0  405.1 v
    0.0  405.1    0.0  412.6 v
    0.0  412.6    0.0  420.1 v
    0.0  420.1    0.0  427.6 v
    0.0  427.6    0.0  435.0 v
    0.0  435.0    0.0  442.5 v
    0.0  442.5    0.0  449.9 v
    0.0  449.9    0.0  457.3 v
    0.0  457.3    0.0  464.6 v
    0.0  464.6    0.0  471.9 v
    0.0  471.9    0.0  479.1 v
    0.0  479.1    0.0  486.2 v
    0.0  486.2    0.0  493.1 v
    0.0  493.1    0.0  500.0 v
    0.0  500.0    7.5  500.0 v
    7.5  500.0   15.0  500.0 v
   15.0  500.0   22.5  500.0 v
   22.5  500.0   30.0  500.0 v
   30.0  500.0   37.5  500.0 v
   37.5  500.0   45.0  500.0 v
   45.0  500.0   52.5  500.0 v
   52.5  500.0   60.0  500.0 v
   60.0  500.0   67.5  500.0 v
   67.5  500.0   75.0  500.0 v
   75.0  500.0   82.5  500.0 v
   82.5  500.0   90.0  500.0 v
   90.0  500.0   97.5  500.0 v
   97.5  500.0  105.0  500.0 v
  105.0  500.0  112.5  500.0 v
  112.5  500.0  120.0  500.0 v
  120.0  500.0  127.5  500.0 v
  127.5  500.0  135.0  500.0 v
  135.0  500.0  142.5  500.0 v
  142.5  500.0  150.0  500.0 v
  150.0  500.0  157.5  500.0 v
  157.5  500.0  165.0  500.0 v
  165.0  500.0  172.6  500.0 v
  172.6  500.0  180.1  500.0 v
  180.1  500.0  187.6  500.0 v
  187.6  500.0  195.1  500.0 v
  195.1  500.0  202.6  500.0 v
  202.6  500.0  210.1  500.0 v
  210.1  500.0  217.6  500.0 v
  217.6  500.0  225.1  500.0 v
  225.1  500.0  232.6  500.0 v
  232.6  500.0  240.1  500.0 v
  240.1  500.0  247.6  500.0 v
  247.6  500.0  255.1  500.0 v
  255.1  500.0  262.6  500.0 v
  262.6  500.0  270.2  500.0 v
  270.2  500.0  277.7  500.0 v
  277.7  500.0  285.2  500.0 v
  285.2  500.0  292.7  500.0 v
  292.7  500.0  300.2  500.0 v
  300.2  500.0  307.7  500.0 v
  307.7  500.0  315.2  500.0 v
  315.2  500.0  322.7  500.0 v
  322.7  500.0  330.2  500.0 v
  330.2  500.0  337.7  500.0 v
  337.7  500.0  345.2  500.0 v
  345.2  500.0  352.7  500.0 v
  352.7  500.0  360.2  500.0 v
  360.2  500.0  367.7  500.0 v
  367.7  500.0  375.2  500.0 v
  375.2  500.0  382.7  500.0 v
  382.7  500.0  390.2  500.0 v
  390.2  500.0  397.7  500.0 v
  397.7  500.0  405.2  500.0 v
  405.2  500.0  412.7  500.0 v
  412.7  500.0  420.2  500.0 v
  420.2  500.0  427.7  500.0 v
  427.7  500.0  435.1  500.0 v
  435.1  500.0  442.6  500.0 v
  442.6  500.0  450.0  500.0 v
  450.0  500.0  457.3  500.0 v
  457.3  500.0  464.7  500.0 v
  464.7  500.0  471.9  500.0 v
  471.9  500.0  479.1  500.0 v
  479.1  500.0  486.2  500.0 v
  486.2  500.0  493.1  500.0 v
  493.1  500.0  500.0  500.0 v
  500.0  500.0  500.0  492.5 v
  500.0  492.5  500.0  485.0 v
  500.0  485.0  500.0  477.5 v
  500.0  477.5  500.0  470.0 v
  500.0  470.0  500.0  462.5 v
  500.0  462.5  500.0  455.0 v
  500.0  455.0  500.0  447.5 v
  500.0  447.5  500.0  440.0 v
  500.0  440.0  500.0  432.5 v
  500.0  432.5  500.0  425.0 v
  500.0  425.0  500.0  417.5 v
  500.0  417.5  500.0  410.0 v
  500.0  410.0  500.0  402.5 v
  500.0  402.5  500.0  395.0 v
  500.0  395.0  500.0  387.5 v
  500.0  387.5  500.0  380.0 v
  500.0  380.0  500.0  372.5 v
  500.0  372.5  500.0  365.0 v
  500.0  365.0  500.0  357.5 v
  500.0  357.5  500.0  350.0 v
  500.0  350.0  500.0  342.5 v
  500.0  342.5  500.0  335.0 v
  500.0  335.0  500.0  327.4 v
  500.0  327.4  500.0  319.9 v
  500.0  319.9  500.0  312.4 v
  500.0  312.4  500.0  304.9 v
  500.0  304.9  500.0  297.4 v
  500.0  297.4  500.0  289.9 v
  500.0  289.9  500.0  282.4 v
  500.0  282.4  500.0  274.9 v
  500.0  274.9  500.0  267.4 v
  500.0  267.4  500.0  259.9 v
  500.0  259.9  500.0  252.4 v
  500.0  252.4  500.0  244.9 v
  500.0  244.9  500.0  237.4 v
  500.0  237.4  500.0  229.8 v
  500.0  229.8  500.0  222.3 v
  500.0  222.3  500.0  214.8 v
  500.0  214.8  500.0  207.3 v
  500.0  207.3  500.0  199.8 v
  500.0  199.8  500.0  192.3 v
  500.0  192.3  500.0  184.8 v
  500.0  184.8  500.0  177.3 v
  500.0  177.3  500.0  169.8 v
  500.0  169.8  500.0  162.3 v
  500.0  162.3  500.0  154.8 v
  500.0  154.8  500.0  147.3 v
  500.0  147.3  500.0  139.8 v
  500.0  139.8  500.0  132.3 v
  500.0  132.3  500.0  124.8 v
  500.0  124.8  500.0  117.3 v
  500.0  117.3  500.0  109.8 v
  500.0  109.8  500.0  102.3 v
  500.0  102.3  500.0   94.8 v
  500.0   94.8  500.0   87.3 v
  500.0   87.3  500.0   79.8 v
  500.0   79.8  500.0   72.3 v
  500.0   72.3  500.0   64.9 v
  500.0   64.9  500.0   57.4 v
  500.0   57.4  500.0   50.0 v
  500.0   50.0  500.0   42.7 v
  500.0   42.7  500.0   35.3 v
  500.0   35.3  500.0   28.1 v
  500.0   28.1  500.0   20.9 v
  500.0   20.9  500.0   13.8 v
  500.0   13.8  500.0    6.9 v
  500.0    6.9  500.0    0.0 v
  500.0    0.0  492.5    0.0 v
  492.5    0.0  485.0    0.0 v
  485.0    0.0  477.5    0.0 v
  477.5    0.0  470.0    0.0 v
  470.0    0.0  462.5    0.0 v
  462.5    0.0  455.0    0.0 v
  455.0    0.0  447.5    0.0 v
  447.5    0.0  440.0    0.0 v
  440.0    0.0  432.5    0.0 v
  432.5    0.0  425.0    0.0 v
  425.0    0.0  417.5    0.0 v
  417.5    0.0  410.0    0.0 v
  410.0    0.0  402.5    0.0 v
  402.5    0.0  395.0    0.0 v
  395.0    0.0  387.5    0.0 v
  387.5    0.0  380.0    0.0 v
  380.0    0.0  372.5    0.0 v
  372.5    0.0  365.0    0.0 v
  365.0    0.0  357.5    0.0 v
  357.5    0.0  350.0    0.0 v
  350.0    0.0  342.5    0.0 v
  342.5    0.0  335.0    0.0 v
  335.0    0.0  327.4    0.0 v
  327.4    0.0  319.9    0.0 v
  319.9    0.0  312.4    0.0 v
  312.4    0.0  304.9    0.0 v
  304.9    0.0  297.4    0.0 v
  297.4    0.0  289.9    0.0 v
  289.9    0.0  282.4    0.0 v
  282.4    0.0  274.9    0.0 v
  274.9    0.0  267.4    0.0 v
  267.4    0.0  259.9    0.0 v
  259.9    0.0  252.4    0.0 v
  252.4    0.0  244.9    0.0 v
  244.9    0.0  237.4    0.0 v
  237.4    0.0  229.8    0.0 v
  229.8    0.0  222.3    0.0 v
  222.3    0.0  214.8    0.0 v
  214.8    0.0  207.3    0.0 v
  207.3    0.0  199.8    0.0 v
  199.8    0.0  192.3    0.0 v
  192.3    0.0  184.8    0.0 v
  184.8    0.0  177.3    0.0 v
  177.3    0.0  169.8    0.0 v
  169.8    0.0  162.3    0.0 v
  162.3    0.0  154.8    0.0 v
  154.8    0.0  147.3    0.0 v
  147.3    0.0  139.8    0.0 v
  139.8    0.0  132.3    0.0 v
  132.3    0.0  124.8    0.0 v
  124.8    0.0  117.3    0.0 v
  117.3    0.0  109.8    0.0 v
  109.8    0.0  102.3    0.0 v
  102.3    0.0   94.8    0.0 v
   94.8    0.0   87.3    0.0 v
   87.3    0.0   79.8    0.0 v
   79.8    0.0   72.3    0.0 v
   72.3    0.0   64.9    0.0 v
   64.9    0.0   57.4    0.0 v
   57.4    0.0   50.0    0.0 v
   50.0    0.0   42.7    0.0 v
   42.7    0.0   35.3    0.0 v
   35.3    0.0   28.1    0.0 v
   28.1    0.0   20.9    0.0 v
   20.9    0.0   13.8    0.0 v
   13.8    0.0    6.9    0.0 v
    6.9    0.0    0.0    0.0 v
/l{lineto}def /m{moveto}def /s{l stroke}def
/x{exch}def /rm{rmoveto}def
/np{newpath}def /cp{closepath}def

/fsize 27 def
/Times-Roman findfont fsize scalefont setfont

/ctext{3 1 roll m dup stringwidth fsize 0.33
mul sub x 2 div 0 x sub x rm show}def

/clearField{/yUp x def /xRight x def
/yDown x def /xLeft x def
gsave np xLeft yDown m xRight yDown
l xRight yUp l xLeft yUp l cp 1 setgray fill
grestore}def

/clearANDctext{3 copy stringwidth /dY fsize 2
div def pop /dX x 2 div def /yDown x def /xLeft
x def xLeft dX sub yDown dY sub xLeft dX add
yDown dY add clearField ctext}def

0. 0. 1. setrgbcolor
250 450 (Solution isolines at time T=0.5) clearANDctext
  showpage
