%!PS-Adobe-2.0 EPSF-2.0
%%BoundingBox: 0 0  520 520
%%EndComments
 10 10 translate 0 setlinewidth
 /v{moveto lineto stroke}def
    5.4  372.1    5.4  372.9 v
    4.3  371.5    4.3  373.3 v
    3.2  370.8    3.2  373.7 v
    2.1  370.1    2.1  374.2 v
    1.1  369.5    1.1  374.6 v
    0.0  375.0    0.0  368.8 v
    5.6  365.4    5.6  366.4 v
    4.4  364.8    4.4  366.9 v
    3.3  364.2    3.3  367.4 v
    2.2  363.6    2.2  367.8 v
    1.1  363.0    1.1  368.3 v
    0.0  368.8    0.0  362.4 v
    7.1  358.2    7.1  358.5 v
    6.0  357.8    6.0  359.1 v
    4.8  357.4    4.8  359.8 v
    3.6  357.0    3.6  360.4 v
    2.4  356.6    2.4  361.1 v
    1.2  356.2    1.2  361.7 v
    0.0  362.4    0.0  355.8 v
    5.1  351.8    5.1  352.1 v
    4.1  351.2    4.1  352.8 v
    3.1  350.7    3.1  353.5 v
    2.0  350.1    2.0  354.3 v
    1.0  349.5    1.0  355.0 v
    0.0  355.8    0.0  348.9 v
    0.8  118.6    0.0  118.3 v
    6.5  121.6    0.0  119.1 v
    0.0  119.9    5.6  122.2 v
    0.0  120.8    4.7  122.6 v
    0.0  121.6    3.8  123.1 v
    0.0  122.5    2.8  123.6 v
    0.0  123.3    1.9  124.1 v
    0.0  124.2    0.9  124.5 v
    0.0  125.0    0.0  125.0 v
    6.7  344.9    6.7  345.2 v
    5.6  344.4    5.6  345.8 v
    4.5  343.9    4.5  346.4 v
    3.4  343.4    3.4  347.0 v
    2.2  342.9    2.2  347.7 v
    1.1  342.4    1.1  348.3 v
    0.0  348.9    0.0  341.8 v
    5.1  338.1    5.1  338.2 v
    4.0  337.4    4.0  339.0 v
    3.0  336.7    3.0  339.7 v
    2.0  336.0    2.0  340.4 v
    1.0  335.3    1.0  341.1 v
    0.0  341.8    0.0  334.7 v
    7.0  331.2    7.0  331.4 v
    5.8  330.5    5.8  331.9 v
    4.7  329.9    4.7  332.5 v
    3.5  329.3    3.5  333.0 v
    2.3  328.6    2.3  333.6 v
    1.2  328.0    1.2  334.1 v
    0.0  334.7    0.0  327.4 v
    5.5  323.0    5.5  323.9 v
    4.4  322.4    4.4  324.6 v
    3.3  321.8    3.3  325.3 v
    2.2  321.2    2.2  326.0 v
    1.1  320.6    1.1  326.7 v
    0.0  327.4    0.0  320.0 v
    5.4  315.7    5.4  316.8 v
    4.4  315.1    4.4  317.4 v
    3.3  314.5    3.3  318.1 v
    2.2  313.8    2.2  318.7 v
    1.1  313.2    1.1  319.4 v
    0.0  320.0    0.0  312.6 v
    5.4  308.4    5.4  309.4 v
    4.3  307.8    4.3  310.0 v
    3.2  307.1    3.2  310.7 v
    2.2  306.5    2.2  311.3 v
    1.1  305.8    1.1  312.0 v
    0.0  312.6    0.0  305.1 v
    5.1  300.9    5.1  302.0 v
    4.1  300.3    4.1  302.6 v
    3.1  299.6    3.1  303.2 v
    2.0  299.0    2.0  303.9 v
    1.0  298.3    1.0  304.5 v
    0.0  305.1    0.0  297.7 v
    5.1  294.7    5.1  295.0 v
    4.1  293.8    4.1  295.6 v
    3.0  292.9    3.0  296.1 v
    2.0  292.0    2.0  296.6 v
    1.0  291.1    1.0  297.1 v
    0.0  297.7    0.0  290.2 v
    5.5  225.8    5.5  226.9 v
    4.4  225.2    4.4  227.6 v
    3.3  224.6    3.3  228.2 v
    2.2  223.9    2.2  228.9 v
    1.1  223.3    1.1  229.5 v
    0.0  230.1    0.0  222.6 v
    5.5  233.3    5.5  234.4 v
    4.4  232.7    4.4  235.1 v
    3.3  232.1    3.3  235.7 v
    2.2  231.4    2.2  236.4 v
    1.1  230.8    1.1  237.0 v
    0.0  237.6    0.0  230.1 v
    5.5  218.3    5.5  219.4 v
    4.4  217.7    4.4  220.1 v
    3.3  217.1    3.3  220.7 v
    2.2  216.4    2.2  221.4 v
    1.1  215.8    1.1  222.0 v
    0.0  222.6    0.0  215.1 v
    5.5  240.8    5.5  241.9 v
    4.4  240.2    4.4  242.6 v
    3.3  239.6    3.3  243.2 v
    2.2  238.9    2.2  243.9 v
    1.1  238.3    1.1  244.5 v
    0.0  245.1    0.0  237.6 v
    5.5  195.8    5.5  196.9 v
    4.4  195.2    4.4  197.6 v
    3.3  194.6    3.3  198.2 v
    2.2  193.9    2.2  198.9 v
    1.1  193.3    1.1  199.5 v
    0.0  200.1    0.0  192.6 v
    5.5  210.8    5.5  211.9 v
    4.4  210.2    4.4  212.6 v
    3.3  209.6    3.3  213.2 v
    2.2  208.9    2.2  213.9 v
    1.1  208.3    1.1  214.5 v
    0.0  215.1    0.0  207.6 v
    5.5  203.3    5.5  204.4 v
    4.4  202.7    4.4  205.1 v
    3.3  202.1    3.3  205.7 v
    2.2  201.4    2.2  206.4 v
    1.1  200.8    1.1  207.0 v
    0.0  207.6    0.0  200.1 v
    8.6  288.1    7.6  291.2 v
    7.2  288.4    5.1  294.7 v
    5.8  288.8    4.1  293.8 v
    4.3  289.1    3.0  292.9 v
    2.9  289.5    2.0  292.0 v
    1.4  289.8    1.0  291.1 v
    0.0  290.2    0.0  290.2 v
    5.4  316.8    5.5  323.0 v
    4.4  317.4    4.4  322.4 v
    3.3  318.1    3.3  321.8 v
    2.2  318.7    2.2  321.2 v
    1.1  319.4    1.1  320.6 v
    0.0  320.0    0.0  320.0 v
   11.4  319.2   11.4  320.6 v
    9.1  317.8    9.2  321.8 v
    6.7  316.5    6.9  323.0 v
    5.4  309.4    5.4  315.7 v
    4.3  310.0    4.4  315.1 v
    3.2  310.7    3.3  314.5 v
    2.2  311.3    2.2  313.8 v
    1.1  312.0    1.1  313.2 v
    0.0  312.6    0.0  312.6 v
   11.4  311.9   11.3  313.4 v
    9.1  310.6    9.0  314.7 v
    6.8  309.3    6.7  316.0 v
   11.3  313.4   11.4  319.2 v
    9.0  314.7    9.1  317.8 v
    6.7  316.0    6.7  316.5 v
   10.9  305.9   11.4  311.9 v
    8.8  307.2    9.1  310.6 v
    6.8  308.5    6.8  309.3 v
    5.5  204.4    5.5  210.8 v
    4.4  205.1    4.4  210.2 v
    3.3  205.7    3.3  209.6 v
    2.2  206.4    2.2  208.9 v
    1.1  207.0    1.1  208.3 v
    0.0  207.6    0.0  207.6 v
   11.7  206.9   11.7  208.4 v
    9.2  205.5    9.2  209.8 v
    6.8  204.1    6.8  211.2 v
   11.7  200.9   11.7  206.9 v
    9.2  202.3    9.2  205.5 v
    6.8  203.7    6.8  204.1 v
    5.5  196.9    5.5  203.3 v
    4.4  197.6    4.4  202.7 v
    3.3  198.2    3.3  202.1 v
    2.2  198.9    2.2  201.4 v
    1.1  199.5    1.1  200.8 v
    0.0  200.1    0.0  200.1 v
   11.7  199.4   11.7  200.9 v
    9.2  198.0    9.2  202.3 v
    6.8  196.6    6.8  203.7 v
   11.7  193.4   11.7  199.4 v
    9.2  194.8    9.2  198.0 v
    6.8  196.2    6.8  196.6 v
   10.4  376.9   12.2  370.5 v
    8.5  375.0    9.6  371.4 v
    6.7  373.1    6.9  372.3 v
    9.8  377.8   10.4  376.9 v
    6.5  378.3    8.5  375.0 v
    6.7  373.1    5.7  374.6 v
   11.1  293.5   15.5  291.4 v
   10.0  289.3   11.1  288.7 v
   17.1  286.3   13.6  282.4 v
   11.5  287.5   10.6  286.5 v
   15.5  291.4   17.1  286.3 v
   11.1  288.7   11.5  287.5 v
   14.6  331.6   10.7  327.4 v
   10.5  331.4    8.8  329.5 v
   10.1  335.7   14.6  331.6 v
    8.5  333.3   10.5  331.4 v
   13.2  280.3   11.5  276.2 v
    9.6  280.3    9.2  279.5 v
   11.5  276.2   11.5  275.1 v
    9.2  279.5    9.5  274.9 v
    7.3  277.2    7.5  274.6 v
    7.7  280.6    7.3  277.2 v
    6.4  280.9    5.8  274.9 v
    5.1  281.3    4.6  276.5 v
    3.8  281.6    3.5  278.0 v
    2.6  282.0    2.3  279.6 v
    1.3  282.3    1.2  281.1 v
    0.0  282.7    0.0  282.7 v
    0.8  118.6    6.6  116.4 v
    6.5  121.6    6.6  121.6 v
    6.6  116.4   12.0  118.7 v
    6.6  121.6    6.7  121.6 v
   14.7  357.5   10.2  353.9 v
   10.6  358.0    8.6  356.4 v
    6.8  383.7    9.8  377.8 v
    5.5  380.1    6.5  378.3 v
    6.8  383.7    0.4  382.2 v
    5.5  380.1    3.5  379.6 v
    0.0  382.4    0.4  382.2 v
    0.0  381.5    3.5  379.6 v
    0.0  380.5    4.5  378.2 v
    0.0  379.6    3.8  377.6 v
    0.0  378.7    3.0  377.1 v
    0.0  377.8    2.3  376.6 v
    0.0  376.8    1.5  376.1 v
    0.0  375.9    0.8  375.5 v
    0.0  375.0    0.0  375.0 v
    4.5  378.2    5.7  374.6 v
    5.4  372.9    3.8  377.6 v
    4.3  373.3    3.0  377.1 v
    3.2  373.7    2.3  376.6 v
    2.1  374.2    1.5  376.1 v
    1.1  374.6    0.8  375.5 v
    0.0  375.0    0.0  375.0 v
   12.0  118.7   10.9  124.2 v
    6.7  121.6    6.6  121.7 v
   10.0  349.1   14.9  344.6 v
    8.3  346.8   10.4  344.8 v
   10.1  351.6   10.0  349.1 v
    8.4  351.7    8.3  346.8 v
    6.7  351.8    6.6  346.7 v
   10.2  353.9   10.1  351.6 v
    8.6  356.4    8.4  351.7 v
    6.7  351.8    7.0  357.0 v
    7.1  358.2    7.0  357.0 v
    6.0  357.8    5.1  352.1 v
    4.8  357.4    4.1  352.8 v
    3.6  357.0    3.1  353.5 v
    2.4  356.6    2.0  354.3 v
    1.2  356.2    1.0  355.0 v
    0.0  355.8    0.0  355.8 v
    6.6  346.7    6.7  345.2 v
    5.1  351.8    5.6  345.8 v
    4.1  351.2    4.5  346.4 v
    3.1  350.7    3.4  347.0 v
    2.0  350.1    2.2  347.7 v
    1.0  349.5    1.1  348.3 v
    0.0  348.9    0.0  348.9 v
   14.9  344.6   10.0  340.6 v
   10.4  344.8    8.3  343.1 v
    6.9  332.4    7.0  331.4 v
    5.8  331.9    5.1  338.1 v
    4.7  332.5    4.0  337.4 v
    3.5  333.0    3.0  336.7 v
    2.3  333.6    2.0  336.0 v
    1.2  334.1    1.0  335.3 v
    0.0  334.7    0.0  334.7 v
   10.1  335.7   10.0  338.1 v
    8.5  333.3    8.3  338.1 v
    6.9  332.4    6.7  338.1 v
   10.0  340.6   10.0  338.1 v
    8.3  343.1    8.3  338.1 v
    6.7  338.1    6.6  343.4 v
    6.7  344.9    6.6  343.4 v
    5.6  344.4    5.1  338.2 v
    4.5  343.9    4.0  339.0 v
    3.4  343.4    3.0  339.7 v
    2.2  342.9    2.0  340.4 v
    1.1  342.4    1.0  341.1 v
    0.0  341.8    0.0  341.8 v
    7.0  331.2    6.8  328.5 v
    5.5  323.9    5.8  330.5 v
    4.4  324.6    4.7  329.9 v
    3.3  325.3    3.5  329.3 v
    2.2  326.0    2.3  328.6 v
    1.1  326.7    1.2  328.0 v
    0.0  327.4    0.0  327.4 v
   10.7  325.5   10.7  327.4 v
    8.8  324.6    8.8  329.5 v
    6.8  323.7    6.8  328.5 v
   11.4  320.6   10.7  325.5 v
    9.2  321.8    8.8  324.6 v
    6.9  323.0    6.8  323.7 v
    5.1  302.0    5.4  308.4 v
    4.1  302.6    4.3  307.8 v
    3.1  303.2    3.2  307.1 v
    2.0  303.9    2.2  306.5 v
    1.0  304.5    1.1  305.8 v
    0.0  305.1    0.0  305.1 v
   10.8  304.8   10.9  305.9 v
    8.6  303.3    8.8  307.2 v
    6.4  301.8    6.8  308.5 v
   10.3  298.6   10.8  304.8 v
    8.3  299.9    8.6  303.3 v
    6.3  301.2    6.4  301.8 v
    5.5  226.9    5.5  233.3 v
    4.4  227.6    4.4  232.7 v
    3.3  228.2    3.3  232.1 v
    2.2  228.9    2.2  231.4 v
    1.1  229.5    1.1  230.8 v
    0.0  230.1    0.0  230.1 v
   11.7  229.4   11.7  230.9 v
    9.2  228.0    9.2  232.3 v
    6.8  226.6    6.8  233.7 v
   11.7  223.4   11.7  229.4 v
    9.2  224.8    9.2  228.0 v
    6.8  226.2    6.8  226.6 v
    5.5  219.4    5.5  225.8 v
    4.4  220.1    4.4  225.2 v
    3.3  220.7    3.3  224.6 v
    2.2  221.4    2.2  223.9 v
    1.1  222.0    1.1  223.3 v
    0.0  222.6    0.0  222.6 v
   11.7  221.9   11.7  223.4 v
    9.2  220.5    9.2  224.8 v
    6.8  219.1    6.8  226.2 v
   11.7  215.9   11.7  221.9 v
    9.2  217.3    9.2  220.5 v
    6.8  218.7    6.8  219.1 v
   11.7  214.4   11.7  208.4 v
    9.2  213.0    9.2  209.8 v
    6.8  211.6    6.8  211.2 v
   11.7  215.9   11.7  214.4 v
    9.2  217.3    9.2  213.0 v
    6.8  218.7    6.8  211.6 v
    5.5  218.3    5.5  211.9 v
    4.4  217.7    4.4  212.6 v
    3.3  217.1    3.3  213.2 v
    2.2  216.4    2.2  213.9 v
    1.1  215.8    1.1  214.5 v
    0.0  215.1    0.0  215.1 v
   11.7  191.9   11.7  185.9 v
    9.2  190.5    9.2  187.3 v
    6.8  189.1    6.8  188.7 v
   11.7  193.4   11.7  191.9 v
    9.2  194.8    9.2  190.5 v
    6.8  196.2    6.8  189.1 v
   11.6  146.9   11.7  140.9 v
    9.2  145.5    9.3  142.3 v
    6.8  144.1    6.8  143.7 v
   11.6  139.4   11.6  133.5 v
    9.2  138.0    9.2  134.9 v
    6.8  136.5    6.8  136.2 v
   11.7  140.9   11.6  139.4 v
    9.3  142.3    9.2  138.0 v
    6.8  143.7    6.8  136.5 v
    5.5  143.3    5.5  136.9 v
    4.4  142.7    4.4  137.6 v
    3.3  142.0    3.3  138.2 v
    2.2  141.4    2.2  138.8 v
    1.1  140.7    1.1  139.4 v
    0.0  140.1    0.0  140.1 v
    5.5  136.9    5.5  135.8 v
    4.4  137.6    4.4  135.1 v
    3.3  138.2    3.3  134.5 v
    2.2  138.8    2.2  133.8 v
    1.1  139.4    1.1  133.2 v
    0.0  140.1    0.0  132.5 v
   11.6  148.4   11.6  146.9 v
    9.2  149.8    9.2  145.5 v
    6.8  151.2    6.8  144.1 v
   11.6  148.4   11.7  154.4 v
    9.2  149.8    9.2  153.0 v
    6.8  151.2    6.8  151.6 v
   11.7  155.9   11.7  154.4 v
    9.2  157.3    9.2  153.0 v
    6.8  158.7    6.8  151.6 v
   11.7  155.9   11.7  161.9 v
    9.2  157.3    9.2  160.5 v
    6.8  158.7    6.8  159.1 v
   11.7  163.4   11.7  161.9 v
    9.2  164.8    9.2  160.5 v
    6.8  166.2    6.8  159.1 v
   11.7  163.4   11.7  169.4 v
    9.2  164.8    9.2  168.0 v
    6.8  166.2    6.8  166.6 v
    5.5  158.3    5.5  151.9 v
    4.4  157.7    4.4  152.6 v
    3.3  157.0    3.3  153.2 v
    2.2  156.4    2.2  153.8 v
    1.1  155.7    1.1  154.5 v
    0.0  155.1    0.0  155.1 v
    5.5  151.9    5.5  150.8 v
    4.4  152.6    4.4  150.2 v
    3.3  153.2    3.3  149.5 v
    2.2  153.8    2.2  148.9 v
    1.1  154.5    1.1  148.2 v
    0.0  155.1    0.0  147.6 v
   11.7  170.9   11.7  169.4 v
    9.2  172.3    9.2  168.0 v
    6.8  173.7    6.8  166.6 v
   11.7  170.9   11.7  176.9 v
    9.2  172.3    9.2  175.5 v
    6.8  173.7    6.8  174.1 v
   11.7  178.4   11.7  176.9 v
    9.2  179.8    9.2  175.5 v
    6.8  181.2    6.8  174.1 v
   11.7  178.4   11.7  184.4 v
    9.2  179.8    9.2  183.0 v
    6.8  181.2    6.8  181.6 v
   11.7  132.0   11.9  126.0 v
    9.5  130.7    9.6  127.3 v
    7.2  129.4    7.3  128.5 v
    5.5  180.8    5.5  174.4 v
    4.4  180.2    4.4  175.1 v
    3.3  179.6    3.3  175.7 v
    2.2  178.9    2.2  176.4 v
    1.1  178.3    1.1  177.0 v
    0.0  177.6    0.0  177.6 v
    5.5  174.4    5.5  173.3 v
    4.4  175.1    4.4  172.7 v
    3.3  175.7    3.3  172.1 v
    2.2  176.4    2.2  171.4 v
    1.1  177.0    1.1  170.8 v
    0.0  177.6    0.0  170.1 v
   11.6  133.5   11.7  132.0 v
    9.2  134.9    9.5  130.7 v
    6.8  136.2    7.2  129.4 v
    5.5  135.8    5.7  129.4 v
    4.4  135.1    4.6  130.0 v
    3.3  134.5    3.4  130.6 v
    2.2  133.8    2.3  131.3 v
    1.1  133.2    1.1  131.9 v
    0.0  132.5    0.0  132.5 v
    5.7  129.4    5.7  128.5 v
    4.6  130.0    4.6  127.8 v
    3.4  130.6    3.4  127.1 v
    2.3  131.3    2.3  126.4 v
    1.1  131.9    1.1  125.7 v
    0.0  132.5    0.0  125.0 v
    5.5  165.8    5.5  159.4 v
    4.4  165.2    4.4  160.1 v
    3.3  164.5    3.3  160.7 v
    2.2  163.9    2.2  161.3 v
    1.1  163.3    1.1  162.0 v
    0.0  162.6    0.0  162.6 v
    5.5  159.4    5.5  158.3 v
    4.4  160.1    4.4  157.7 v
    3.3  160.7    3.3  157.0 v
    2.2  161.3    2.2  156.4 v
    1.1  162.0    1.1  155.7 v
    0.0  162.6    0.0  155.1 v
    5.5  150.8    5.5  144.4 v
    4.4  150.2    4.4  145.0 v
    3.3  149.5    3.3  145.7 v
    2.2  148.9    2.2  146.3 v
    1.1  148.2    1.1  146.9 v
    0.0  147.6    0.0  147.6 v
    5.5  144.4    5.5  143.3 v
    4.4  145.0    4.4  142.7 v
    3.3  145.7    3.3  142.0 v
    2.2  146.3    2.2  141.4 v
    1.1  146.9    1.1  140.7 v
    0.0  147.6    0.0  140.1 v
   11.6  251.9   11.7  245.9 v
    9.2  250.5    9.2  247.3 v
    6.8  249.1    6.8  248.7 v
   11.7  245.9   11.7  244.4 v
    9.2  247.3    9.2  243.0 v
    6.8  248.7    6.8  241.6 v
   11.6  253.5   11.6  251.9 v
    9.2  254.8    9.2  250.5 v
    6.8  256.2    6.8  249.1 v
    5.5  255.9    5.5  249.4 v
    4.4  255.3    4.4  250.1 v
    3.3  254.6    3.3  250.7 v
    2.2  253.9    2.2  251.4 v
    1.1  253.3    1.1  252.0 v
    0.0  252.6    0.0  252.6 v
    5.5  249.4    5.5  248.3 v
    4.4  250.1    4.4  247.7 v
    3.3  250.7    3.3  247.1 v
    2.2  251.4    2.2  246.4 v
    1.1  252.0    1.1  245.8 v
    0.0  252.6    0.0  245.1 v
   11.6  259.6   11.6  253.5 v
    9.2  258.2    9.2  254.8 v
    6.8  256.7    6.8  256.2 v
   11.7  244.4   11.7  238.4 v
    9.2  243.0    9.2  239.8 v
    6.8  241.6    6.8  241.2 v
   11.7  238.4   11.7  236.9 v
    9.2  239.8    9.2  235.5 v
    6.8  241.2    6.8  234.1 v
    5.5  240.8    5.5  234.4 v
    4.4  240.2    4.4  235.1 v
    3.3  239.6    3.3  235.7 v
    2.2  238.9    2.2  236.4 v
    1.1  238.3    1.1  237.0 v
    0.0  237.6    0.0  237.6 v
   11.5  261.1   11.6  259.6 v
    9.0  262.7    9.2  258.2 v
    6.5  264.2    6.8  256.7 v
    5.3  263.8    5.5  257.0 v
    4.2  263.0    4.4  257.6 v
    3.2  262.3    3.3  258.2 v
    2.1  261.6    2.2  258.9 v
    1.1  260.9    1.1  259.5 v
    0.0  260.1    0.0  260.1 v
   11.5  261.1   10.5  267.3 v
    9.0  262.7    8.5  265.9 v
    6.5  264.2    6.5  264.6 v
   10.8  269.9   10.5  267.3 v
    9.1  271.6    8.5  265.9 v
    7.3  273.3    6.5  264.6 v
   11.2  361.9   14.7  357.5 v
    9.1  359.9   10.6  358.0 v
   11.1  363.7   11.2  361.9 v
    9.0  364.8    9.1  359.9 v
    6.8  365.8    6.8  363.9 v
   11.1  363.7   12.2  369.1 v
    9.0  364.8    9.5  367.6 v
    6.8  365.8    6.8  366.1 v
    6.8  363.9    7.1  358.5 v
    5.6  365.4    6.0  359.1 v
    4.4  364.8    4.8  359.8 v
    3.3  364.2    3.6  360.4 v
    2.2  363.6    2.4  361.1 v
    1.1  363.0    1.2  361.7 v
    0.0  362.4    0.0  362.4 v
    5.1  295.0    5.1  300.9 v
    4.1  295.6    4.1  300.3 v
    3.0  296.1    3.1  299.6 v
    2.0  296.6    2.0  299.0 v
    1.0  297.1    1.0  298.3 v
    0.0  297.7    0.0  297.7 v
   10.4  296.8   10.3  298.6 v
    8.6  296.1    8.3  299.9 v
    6.7  295.4    6.3  301.2 v
   10.4  296.8   11.1  293.5 v
    8.6  296.1   10.0  289.3 v
    7.6  291.2    6.7  295.4 v
    5.6  366.4    5.4  372.1 v
    4.4  366.9    4.3  371.5 v
    3.3  367.4    3.2  370.8 v
    2.2  367.8    2.1  370.1 v
    1.1  368.3    1.1  369.5 v
    0.0  368.8    0.0  368.8 v
   12.2  369.1   12.2  370.5 v
    9.5  367.6    9.6  371.4 v
    6.8  366.1    6.9  372.3 v
    5.5  241.9    5.5  248.3 v
    4.4  242.6    4.4  247.7 v
    3.3  243.2    3.3  247.1 v
    2.2  243.9    2.2  246.4 v
    1.1  244.5    1.1  245.8 v
    0.0  245.1    0.0  245.1 v
   10.8  269.9   11.5  275.1 v
    9.1  271.6    9.5  274.9 v
    7.3  273.3    7.5  274.6 v
   13.6  282.4   13.2  280.3 v
   10.6  286.5    9.6  280.3 v
    8.6  287.3    7.7  280.6 v
    7.2  286.5    6.4  280.9 v
    5.8  285.8    5.1  281.3 v
    4.3  285.0    3.8  281.6 v
    2.9  284.2    2.6  282.0 v
    1.4  283.4    1.3  282.3 v
    0.0  282.7    0.0  282.7 v
    8.6  288.1    8.6  287.3 v
    7.2  288.4    7.2  286.5 v
    5.8  288.8    5.8  285.8 v
    4.3  289.1    4.3  285.0 v
    2.9  289.5    2.9  284.2 v
    1.4  289.8    1.4  283.4 v
    0.0  290.2    0.0  282.7 v
   11.7  185.9   11.7  184.4 v
    9.2  187.3    9.2  183.0 v
    6.8  188.7    6.8  181.6 v
   11.9  126.0   10.9  124.2 v
    9.6  127.3    6.6  121.7 v
    6.5  127.1    7.3  128.5 v
    5.5  173.3    5.5  166.9 v
    4.4  172.7    4.4  167.6 v
    3.3  172.1    3.3  168.2 v
    2.2  171.4    2.2  168.9 v
    1.1  170.8    1.1  169.5 v
    0.0  170.1    0.0  170.1 v
    5.5  166.9    5.5  165.8 v
    4.4  167.6    4.4  165.2 v
    3.3  168.2    3.3  164.5 v
    2.2  168.9    2.2  163.9 v
    1.1  169.5    1.1  163.3 v
    0.0  170.1    0.0  162.6 v
    6.5  127.1    5.6  122.2 v
    4.7  122.6    5.7  128.5 v
    3.8  123.1    4.6  127.8 v
    2.8  123.6    3.4  127.1 v
    1.9  124.1    2.3  126.4 v
    0.9  124.5    1.1  125.7 v
    0.0  125.0    0.0  125.0 v
    5.5  189.4    5.5  195.8 v
    4.4  190.1    4.4  195.2 v
    3.3  190.7    3.3  194.6 v
    2.2  191.4    2.2  193.9 v
    1.1  192.0    1.1  193.3 v
    0.0  192.6    0.0  192.6 v
    5.5  189.4    5.5  188.3 v
    4.4  190.1    4.4  187.7 v
    3.3  190.7    3.3  187.1 v
    2.2  191.4    2.2  186.4 v
    1.1  192.0    1.1  185.8 v
    0.0  192.6    0.0  185.1 v
    5.5  181.9    5.5  188.3 v
    4.4  182.6    4.4  187.7 v
    3.3  183.2    3.3  187.1 v
    2.2  183.9    2.2  186.4 v
    1.1  184.5    1.1  185.8 v
    0.0  185.1    0.0  185.1 v
    5.5  181.9    5.5  180.8 v
    4.4  182.6    4.4  180.2 v
    3.3  183.2    3.3  179.6 v
    2.2  183.9    2.2  178.9 v
    1.1  184.5    1.1  178.3 v
    0.0  185.1    0.0  177.6 v
   11.7  230.9   11.7  236.9 v
    9.2  232.3    9.2  235.5 v
    6.8  233.7    6.8  234.1 v
    5.5  257.0    5.5  255.9 v
    4.4  257.6    4.4  255.3 v
    3.3  258.2    3.3  254.6 v
    2.2  258.9    2.2  253.9 v
    1.1  259.5    1.1  253.3 v
    0.0  260.1    0.0  252.6 v
    5.3  264.9    5.3  263.8 v
    4.2  265.4    4.2  263.0 v
    3.2  266.0    3.2  262.3 v
    2.1  266.5    2.1  261.6 v
    1.1  267.1    1.1  260.9 v
    0.0  267.6    0.0  260.1 v
    5.3  264.9    5.8  274.0 v
    4.2  265.4    4.6  272.7 v
    3.2  266.0    3.5  271.5 v
    2.1  266.5    2.3  270.2 v
    1.1  267.1    1.2  268.9 v
    0.0  267.6    0.0  267.6 v
    5.8  274.5    5.8  274.0 v
    4.6  274.6    4.6  272.7 v
    3.5  274.7    3.5  271.5 v
    2.3  274.9    2.3  270.2 v
    1.2  275.0    1.2  268.9 v
    0.0  275.2    0.0  267.6 v
    5.8  274.9    5.8  274.5 v
    4.6  276.5    4.6  274.6 v
    3.5  278.0    3.5  274.7 v
    2.3  279.6    2.3  274.9 v
    1.2  281.1    1.2  275.0 v
    0.0  282.7    0.0  275.2 v
    0.0    0.0    0.0    7.5 v
    0.0    7.5    0.0   15.1 v
    0.0   15.1    0.0   22.6 v
    0.0   22.6    0.0   30.1 v
    0.0   30.1    0.0   37.6 v
    0.0   37.6    0.0   45.1 v
    0.0   45.1    0.0   52.6 v
    0.0   52.6    0.0   60.0 v
    0.0   60.0    0.0   67.5 v
    0.0   67.5    0.0   74.9 v
    0.0   74.9    0.0   82.3 v
    0.0   82.3    0.0   89.6 v
    0.0   89.6    0.0   96.9 v
    0.0   96.9    0.0  104.1 v
    0.0  104.1    0.0  111.2 v
    0.0  111.2    0.0  118.1 v
    0.0  118.1    0.0  125.0 v
    0.0  125.0    0.0  132.5 v
    0.0  132.5    0.0  140.1 v
    0.0  140.1    0.0  147.6 v
    0.0  147.6    0.0  155.1 v
    0.0  155.1    0.0  162.6 v
    0.0  162.6    0.0  170.1 v
    0.0  170.1    0.0  177.6 v
    0.0  177.6    0.0  185.1 v
    0.0  185.1    0.0  192.6 v
    0.0  192.6    0.0  200.1 v
    0.0  200.1    0.0  207.6 v
    0.0  207.6    0.0  215.1 v
    0.0  215.1    0.0  222.6 v
    0.0  222.6    0.0  230.1 v
    0.0  230.1    0.0  237.6 v
    0.0  237.6    0.0  245.1 v
    0.0  245.1    0.0  252.6 v
    0.0  252.6    0.0  260.1 v
    0.0  260.1    0.0  267.6 v
    0.0  267.6    0.0  275.2 v
    0.0  275.2    0.0  282.7 v
    0.0  282.7    0.0  290.2 v
    0.0  290.2    0.0  297.7 v
    0.0  297.7    0.0  305.1 v
    0.0  305.1    0.0  312.6 v
    0.0  312.6    0.0  320.0 v
    0.0  320.0    0.0  327.4 v
    0.0  327.4    0.0  334.7 v
    0.0  334.7    0.0  341.8 v
    0.0  341.8    0.0  348.9 v
    0.0  348.9    0.0  355.8 v
    0.0  355.8    0.0  362.4 v
    0.0  362.4    0.0  368.8 v
    0.0  368.8    0.0  375.0 v
    0.0  375.0    0.0  382.5 v
    0.0  382.5    0.0  390.1 v
    0.0  390.1    0.0  397.6 v
    0.0  397.6    0.0  405.1 v
    0.0  405.1    0.0  412.6 v
    0.0  412.6    0.0  420.1 v
    0.0  420.1    0.0  427.6 v
    0.0  427.6    0.0  435.0 v
    0.0  435.0    0.0  442.5 v
    0.0  442.5    0.0  449.9 v
    0.0  449.9    0.0  457.3 v
    0.0  457.3    0.0  464.6 v
    0.0  464.6    0.0  471.9 v
    0.0  471.9    0.0  479.1 v
    0.0  479.1    0.0  486.2 v
    0.0  486.2    0.0  493.1 v
    0.0  493.1    0.0  500.0 v
    0.0  500.0    7.5  500.0 v
    7.5  500.0   15.0  500.0 v
   15.0  500.0   22.5  500.0 v
   22.5  500.0   30.0  500.0 v
   30.0  500.0   37.5  500.0 v
   37.5  500.0   45.0  500.0 v
   45.0  500.0   52.5  500.0 v
   52.5  500.0   60.0  500.0 v
   60.0  500.0   67.5  500.0 v
   67.5  500.0   75.0  500.0 v
   75.0  500.0   82.5  500.0 v
   82.5  500.0   90.0  500.0 v
   90.0  500.0   97.5  500.0 v
   97.5  500.0  105.0  500.0 v
  105.0  500.0  112.5  500.0 v
  112.5  500.0  120.0  500.0 v
  120.0  500.0  127.5  500.0 v
  127.5  500.0  135.0  500.0 v
  135.0  500.0  142.5  500.0 v
  142.5  500.0  150.0  500.0 v
  150.0  500.0  157.5  500.0 v
  157.5  500.0  165.0  500.0 v
  165.0  500.0  172.6  500.0 v
  172.6  500.0  180.1  500.0 v
  180.1  500.0  187.6  500.0 v
  187.6  500.0  195.1  500.0 v
  195.1  500.0  202.6  500.0 v
  202.6  500.0  210.1  500.0 v
  210.1  500.0  217.6  500.0 v
  217.6  500.0  225.1  500.0 v
  225.1  500.0  232.6  500.0 v
  232.6  500.0  240.1  500.0 v
  240.1  500.0  247.6  500.0 v
  247.6  500.0  255.1  500.0 v
  255.1  500.0  262.6  500.0 v
  262.6  500.0  270.2  500.0 v
  270.2  500.0  277.7  500.0 v
  277.7  500.0  285.2  500.0 v
  285.2  500.0  292.7  500.0 v
  292.7  500.0  300.2  500.0 v
  300.2  500.0  307.7  500.0 v
  307.7  500.0  315.2  500.0 v
  315.2  500.0  322.7  500.0 v
  322.7  500.0  330.2  500.0 v
  330.2  500.0  337.7  500.0 v
  337.7  500.0  345.2  500.0 v
  345.2  500.0  352.7  500.0 v
  352.7  500.0  360.2  500.0 v
  360.2  500.0  367.7  500.0 v
  367.7  500.0  375.2  500.0 v
  375.2  500.0  382.7  500.0 v
  382.7  500.0  390.2  500.0 v
  390.2  500.0  397.7  500.0 v
  397.7  500.0  405.2  500.0 v
  405.2  500.0  412.7  500.0 v
  412.7  500.0  420.2  500.0 v
  420.2  500.0  427.7  500.0 v
  427.7  500.0  435.1  500.0 v
  435.1  500.0  442.6  500.0 v
  442.6  500.0  450.0  500.0 v
  450.0  500.0  457.3  500.0 v
  457.3  500.0  464.7  500.0 v
  464.7  500.0  471.9  500.0 v
  471.9  500.0  479.1  500.0 v
  479.1  500.0  486.2  500.0 v
  486.2  500.0  493.1  500.0 v
  493.1  500.0  500.0  500.0 v
  500.0  500.0  500.0  492.5 v
  500.0  492.5  500.0  485.0 v
  500.0  485.0  500.0  477.5 v
  500.0  477.5  500.0  470.0 v
  500.0  470.0  500.0  462.5 v
  500.0  462.5  500.0  455.0 v
  500.0  455.0  500.0  447.5 v
  500.0  447.5  500.0  440.0 v
  500.0  440.0  500.0  432.5 v
  500.0  432.5  500.0  425.0 v
  500.0  425.0  500.0  417.5 v
  500.0  417.5  500.0  410.0 v
  500.0  410.0  500.0  402.5 v
  500.0  402.5  500.0  395.0 v
  500.0  395.0  500.0  387.5 v
  500.0  387.5  500.0  380.0 v
  500.0  380.0  500.0  372.5 v
  500.0  372.5  500.0  365.0 v
  500.0  365.0  500.0  357.5 v
  500.0  357.5  500.0  350.0 v
  500.0  350.0  500.0  342.5 v
  500.0  342.5  500.0  335.0 v
  500.0  335.0  500.0  327.4 v
  500.0  327.4  500.0  319.9 v
  500.0  319.9  500.0  312.4 v
  500.0  312.4  500.0  304.9 v
  500.0  304.9  500.0  297.4 v
  500.0  297.4  500.0  289.9 v
  500.0  289.9  500.0  282.4 v
  500.0  282.4  500.0  274.9 v
  500.0  274.9  500.0  267.4 v
  500.0  267.4  500.0  259.9 v
  500.0  259.9  500.0  252.4 v
  500.0  252.4  500.0  244.9 v
  500.0  244.9  500.0  237.4 v
  500.0  237.4  500.0  229.8 v
  500.0  229.8  500.0  222.3 v
  500.0  222.3  500.0  214.8 v
  500.0  214.8  500.0  207.3 v
  500.0  207.3  500.0  199.8 v
  500.0  199.8  500.0  192.3 v
  500.0  192.3  500.0  184.8 v
  500.0  184.8  500.0  177.3 v
  500.0  177.3  500.0  169.8 v
  500.0  169.8  500.0  162.3 v
  500.0  162.3  500.0  154.8 v
  500.0  154.8  500.0  147.3 v
  500.0  147.3  500.0  139.8 v
  500.0  139.8  500.0  132.3 v
  500.0  132.3  500.0  124.8 v
  500.0  124.8  500.0  117.3 v
  500.0  117.3  500.0  109.8 v
  500.0  109.8  500.0  102.3 v
  500.0  102.3  500.0   94.8 v
  500.0   94.8  500.0   87.3 v
  500.0   87.3  500.0   79.8 v
  500.0   79.8  500.0   72.3 v
  500.0   72.3  500.0   64.9 v
  500.0   64.9  500.0   57.4 v
  500.0   57.4  500.0   50.0 v
  500.0   50.0  500.0   42.7 v
  500.0   42.7  500.0   35.3 v
  500.0   35.3  500.0   28.1 v
  500.0   28.1  500.0   20.9 v
  500.0   20.9  500.0   13.8 v
  500.0   13.8  500.0    6.9 v
  500.0    6.9  500.0    0.0 v
  500.0    0.0  492.5    0.0 v
  492.5    0.0  485.0    0.0 v
  485.0    0.0  477.5    0.0 v
  477.5    0.0  470.0    0.0 v
  470.0    0.0  462.5    0.0 v
  462.5    0.0  455.0    0.0 v
  455.0    0.0  447.5    0.0 v
  447.5    0.0  440.0    0.0 v
  440.0    0.0  432.5    0.0 v
  432.5    0.0  425.0    0.0 v
  425.0    0.0  417.5    0.0 v
  417.5    0.0  410.0    0.0 v
  410.0    0.0  402.5    0.0 v
  402.5    0.0  395.0    0.0 v
  395.0    0.0  387.5    0.0 v
  387.5    0.0  380.0    0.0 v
  380.0    0.0  372.5    0.0 v
  372.5    0.0  365.0    0.0 v
  365.0    0.0  357.5    0.0 v
  357.5    0.0  350.0    0.0 v
  350.0    0.0  342.5    0.0 v
  342.5    0.0  335.0    0.0 v
  335.0    0.0  327.4    0.0 v
  327.4    0.0  319.9    0.0 v
  319.9    0.0  312.4    0.0 v
  312.4    0.0  304.9    0.0 v
  304.9    0.0  297.4    0.0 v
  297.4    0.0  289.9    0.0 v
  289.9    0.0  282.4    0.0 v
  282.4    0.0  274.9    0.0 v
  274.9    0.0  267.4    0.0 v
  267.4    0.0  259.9    0.0 v
  259.9    0.0  252.4    0.0 v
  252.4    0.0  244.9    0.0 v
  244.9    0.0  237.4    0.0 v
  237.4    0.0  229.8    0.0 v
  229.8    0.0  222.3    0.0 v
  222.3    0.0  214.8    0.0 v
  214.8    0.0  207.3    0.0 v
  207.3    0.0  199.8    0.0 v
  199.8    0.0  192.3    0.0 v
  192.3    0.0  184.8    0.0 v
  184.8    0.0  177.3    0.0 v
  177.3    0.0  169.8    0.0 v
  169.8    0.0  162.3    0.0 v
  162.3    0.0  154.8    0.0 v
  154.8    0.0  147.3    0.0 v
  147.3    0.0  139.8    0.0 v
  139.8    0.0  132.3    0.0 v
  132.3    0.0  124.8    0.0 v
  124.8    0.0  117.3    0.0 v
  117.3    0.0  109.8    0.0 v
  109.8    0.0  102.3    0.0 v
  102.3    0.0   94.8    0.0 v
   94.8    0.0   87.3    0.0 v
   87.3    0.0   79.8    0.0 v
   79.8    0.0   72.3    0.0 v
   72.3    0.0   64.9    0.0 v
   64.9    0.0   57.4    0.0 v
   57.4    0.0   50.0    0.0 v
   50.0    0.0   42.7    0.0 v
   42.7    0.0   35.3    0.0 v
   35.3    0.0   28.1    0.0 v
   28.1    0.0   20.9    0.0 v
   20.9    0.0   13.8    0.0 v
   13.8    0.0    6.9    0.0 v
    6.9    0.0    0.0    0.0 v
/l{lineto}def /m{moveto}def /s{l stroke}def
/x{exch}def /rm{rmoveto}def
/np{newpath}def /cp{closepath}def

/fsize 27 def
/Times-Roman findfont fsize scalefont setfont

/ctext{3 1 roll m dup stringwidth fsize 0.33
mul sub x 2 div 0 x sub x rm show}def

/clearField{/yUp x def /xRight x def
/yDown x def /xLeft x def
gsave np xLeft yDown m xRight yDown
l xRight yUp l xLeft yUp l cp 1 setgray fill
grestore}def

/clearANDctext{3 copy stringwidth /dY fsize 2
div def pop /dX x 2 div def /yDown x def /xLeft
x def xLeft dX sub yDown dY sub xLeft dX add
yDown dY add clearField ctext}def

0. 0. 1. setrgbcolor
250 450 (Solution isolines at time T=0) clearANDctext
  showpage
