%!PS-Adobe-2.0 EPSF-2.0
%%BoundingBox: 0 0  520 520
%%EndComments
 10 10 translate 0 setlinewidth
 /t{newpath moveto lineto lineto closepath stroke}def
   500.00000000000000        500.00000000000000        0.0000000000000000        100.00000000000000        0.0000000000000000        0.0000000000000000       t
   0.0000000000000000        0.0000000000000000        500.00000000000000        0.0000000000000000        500.00000000000000        500.00000000000000       t
/l{lineto}def /m{moveto}def /s{l stroke}def
/x{exch}def /rm{rmoveto}def
/np{newpath}def /cp{closepath}def

/fsize 27 def
/Times-Roman findfont fsize scalefont setfont

/ctext{3 1 roll m dup stringwidth fsize 0.33
mul sub x 2 div 0 x sub x rm show}def

/clearField{/yUp x def /xRight x def
/yDown x def /xLeft x def
gsave np xLeft yDown m xRight yDown
l xRight yUp l xLeft yUp l cp 1 setgray fill
grestore}def

/clearANDctext{3 copy stringwidth /dY fsize 2
div def pop /dX x 2 div def /yDown x def /xLeft
x def xLeft dX sub yDown dY sub xLeft dX add
yDown dY add clearField ctext}def

0. 0. 1. setrgbcolor
250 450 (Coarsened mesh) clearANDctext
  showpage
