%!PS-Adobe-2.0 EPSF-2.0
%%BoundingBox: 0 0  520 520
%%EndComments
 10 10 translate 0 setlinewidth
 /v{moveto lineto stroke}def
  188.2  196.1  185.3  188.8 v
  177.6  193.7  177.6  193.6 v
    0.0  248.8    3.1  250.1 v
  189.0  207.1  182.5  202.4 v
  191.0  208.1  190.4  208.0 v
  193.9  214.6  186.7  213.1 v
  196.4  219.3  194.1  219.6 v
  198.6  222.7  192.4  223.6 v
  199.5  226.3  200.9  226.1 v
  202.7  228.1  199.0  230.2 v
  204.5  230.0  196.6  234.3 v
  199.4  235.7  206.3  231.9 v
  206.0  234.9  208.1  233.8 v
   21.5  126.9   21.1  124.0 v
  209.8  235.2  208.3  236.8 v
  211.3  236.3  207.3  240.7 v
  212.9  237.4  206.3  244.7 v
  207.7  246.0  214.4  238.5 v
  211.9  244.1  215.9  239.7 v
  216.1  242.3  217.5  240.8 v
  287.0  130.9  292.8  130.7 v
  219.0  241.7  218.3  243.2 v
  220.5  242.4  218.4  247.0 v
  222.1  243.1  218.5  250.8 v
  219.5  252.7  223.7  243.9 v
  222.3  250.8  225.2  244.6 v
  225.1  248.8  226.8  245.3 v
  227.9  246.9  228.3  246.1 v
  279.8  132.7  281.6  132.0 v
  323.3  353.2  324.9  352.5 v
  176.8  103.2  177.2  107.0 v
  179.9  102.1  181.1  111.9 v
  184.2  110.8  183.0  101.1 v
  186.1  100.0  186.1  100.3 v
  188.3   99.2  189.5  103.3 v
  190.6   98.3  192.9  106.3 v
  195.7  107.4  192.8   97.4 v
  196.3  100.9  195.0   96.5 v
   55.3  126.7   54.5  122.0 v
  230.1  246.6  229.6  250.0 v
  232.1  247.1  230.8  255.5 v
  232.4  258.5  234.0  247.6 v
  234.8  255.6  235.9  248.1 v
  237.2  252.7  237.9  248.6 v
  239.7  249.8  239.8  249.1 v
  260.9  126.0  268.3  118.0 v
  268.3  128.0  270.4  125.7 v
  168.0  105.8  167.4  112.0 v
  172.4  109.7  172.9  104.4 v
  328.6  350.3  333.6  347.7 v
  197.2   95.6  197.5   96.2 v
  199.1   94.7  201.0   98.8 v
  201.0   93.8  204.5  101.3 v
  206.8  101.4  202.9   92.9 v
  207.1   97.0  204.8   92.0 v
  207.4   92.6  206.7   91.1 v
  153.2  109.5  152.8  110.5 v
  162.6  107.3  159.6  115.6 v
  168.0  266.8  168.1  269.2 v
  172.3  263.2  172.7  270.6 v
  332.3   26.2  323.1   21.8 v
  160.0  260.5  161.8  267.6 v
  177.2  271.8  177.2  271.9 v
  180.6  269.2  180.1  272.9 v
  184.0  266.5  183.0  273.9 v
  185.8  274.9  187.1  266.2 v
  148.8  255.7  152.9  265.4 v
  150.7  116.6  148.1  121.7 v
  251.7  125.3  254.7  118.3 v
  256.1  125.5  257.5  122.3 v
  242.5  249.4  243.5  255.2 v
  247.0  258.1  245.5  249.6 v
  249.2  254.4  248.4  249.7 v
  251.5  250.8  251.4  249.9 v
  132.4  259.6  133.5  261.7 v
  133.2  113.4  131.4  117.2 v
   91.6  122.2   91.1  118.9 v
  188.7  275.5  188.6  275.9 v
  191.9  273.1  190.7  276.8 v
  195.1  270.7  192.8  277.7 v
  194.9  278.6  198.0  269.0 v
  197.1  279.4  198.6  274.5 v
  199.2  280.3  199.3  279.9 v
  261.5  259.3  256.0  249.5 v
  263.1  252.2  261.2  248.8 v
  237.9  123.4  237.7  126.4 v
  240.9  118.4  240.2  126.0 v
  242.6  125.7  243.1  120.5 v
  245.1  125.4  245.4  122.6 v
  247.6  125.1  247.6  124.7 v
  208.6   90.0  210.0   92.2 v
  210.6   88.9  214.6   95.1 v
  217.7   95.6  212.5   87.9 v
  217.8   91.7  214.5   86.8 v
  217.9   87.8  216.5   85.7 v
  274.1  251.3  268.2  247.0 v
  224.9  129.9  225.0  130.2 v
  226.0  126.3  226.7  129.7 v
  227.2  122.7  228.5  129.1 v
  228.3  119.0  230.2  128.5 v
  232.0  127.9  230.1  118.5 v
  233.7  127.4  232.6  121.9 v
  235.5  126.8  235.2  125.3 v
   91.1  256.1   91.9  251.2 v
  214.4  135.8  214.5  136.1 v
  214.7  132.9  216.0  135.2 v
  215.0  130.0  217.5  134.4 v
  215.3  127.0  219.0  133.6 v
  215.6  124.1  220.5  132.7 v
  222.0  131.9  218.4  125.4 v
  223.5  131.1  221.8  128.0 v
  285.1  243.3  279.6  242.2 v
   21.1  251.0   21.8  246.2 v
   54.5  253.1   56.1  243.0 v
  147.4  252.9  148.8  255.7 v
  281.6  132.0  287.0  130.9 v
  198.1  268.6  198.0  269.0 v
  200.5  269.5  198.6  274.5 v
  202.9  270.4  199.3  279.9 v
  205.2  271.3  203.0  277.3 v
  207.6  272.2  207.0  273.9 v
  203.0  277.3  201.1  281.2 v
  207.0  273.9  202.9  282.2 v
  208.8  274.9  204.8  283.1 v
  209.3  278.7  206.7  284.0 v
  209.7  282.5  208.5  284.9 v
  132.4  259.6  128.3  251.0 v
  187.3  264.5  187.1  266.2 v
  190.0  265.6  188.7  275.5 v
  192.7  266.6  191.9  273.1 v
  195.5  267.6  195.1  270.7 v
   56.3  241.9   56.1  243.0 v
  296.8  131.1  292.8  130.7 v
  243.1  120.5  244.5  117.2 v
  245.4  122.6  248.2  116.0 v
  247.6  124.7  251.9  114.8 v
  341.7  341.5  345.0  338.2 v
  196.7  237.3  199.4  235.7 v
  198.7  239.4  206.0  234.9 v
  200.7  241.5  208.3  236.8 v
  202.7  243.6  207.3  240.7 v
  204.7  245.7  206.3  244.7 v
  171.8  115.4  172.4  109.7 v
  176.2  115.2  177.2  107.0 v
  180.7  115.1  181.1  111.9 v
  274.1  251.3  278.4  252.7 v
  194.1  219.6  183.6  218.1 v
  192.4  223.6  188.9  223.1 v
  219.3  253.7  219.5  252.7 v
  221.4  254.7  222.3  250.8 v
  223.6  255.6  225.1  248.8 v
  225.8  256.6  227.9  246.9 v
  227.9  257.6  229.6  250.0 v
  230.1  258.6  230.8  255.5 v
  269.8  117.2  268.3  118.0 v
  278.8  121.5  270.4  125.7 v
  182.5  202.4  177.6  193.7 v
  360.4  301.4  359.4  292.8 v
  359.4  292.8  359.3  291.1 v
  360.4  301.4  359.0  310.3 v
  359.3  291.1  356.6  283.2 v
  359.0  311.1  359.0  310.3 v
  355.8  280.4  355.6  279.9 v
  355.8  280.4  356.6  283.2 v
  353.7  277.1  355.6  279.9 v
  247.0  258.1  248.1  260.0 v
  249.2  254.4  253.1  260.9 v
  251.5  250.8  258.0  261.8 v
  335.5  346.4  341.7  341.5 v
  335.5  346.4  333.6  347.7 v
  328.6  350.3  324.9  352.5 v
  257.5  115.2  254.7  118.3 v
  263.3  115.8  257.5  122.3 v
  349.0  333.1  351.7  329.5 v
  351.7  329.5  355.0  323.0 v
  345.0  338.2  349.0  333.1 v
  359.0  311.1  358.3  313.1 v
  358.3  313.1  356.3  320.5 v
  356.3  320.5  355.0  323.0 v
  160.0  260.5  158.0  255.1 v
   21.5  126.9   22.3  134.9 v
   24.3  144.2   22.3  134.9 v
  230.1  117.2  230.1  118.5 v
  232.8  117.5  232.6  121.9 v
  235.5  117.7  235.2  125.3 v
  238.2  118.0  237.9  123.4 v
  240.9  118.3  240.9  118.4 v
  207.7  246.0  206.7  247.3 v
  211.9  244.1  208.8  248.4 v
  216.1  242.3  210.9  249.4 v
  218.3  243.2  213.0  250.5 v
  218.4  247.0  215.1  251.6 v
  218.5  250.8  217.2  252.6 v
   24.3  144.2   24.7  147.0 v
  218.4  125.4  217.3  122.6 v
  221.8  128.0  219.4  121.6 v
  224.9  129.9  221.5  120.6 v
  226.0  126.3  223.6  119.6 v
  227.2  122.7  225.7  118.6 v
  228.3  119.0  227.8  117.6 v
  199.5  226.3  192.3  227.4 v
  199.0  230.2  193.6  231.0 v
  196.6  234.3  195.0  234.5 v
  177.2  271.8  176.5  260.9 v
  180.6  269.2  180.1  262.1 v
  184.0  266.5  183.8  263.3 v
  131.4  117.2  128.1  124.9 v
   28.0  175.7   28.2  179.2 v
   27.5  167.7   28.0  175.7 v
   60.2  170.2   60.3  172.2 v
   60.3  172.2   60.7  181.9 v
   60.7  183.8   60.7  181.9 v
   28.0  199.4   28.3  191.1 v
   28.3  191.1   28.3  187.8 v
   27.7  203.3   28.0  199.4 v
   27.7  203.3   27.1  210.9 v
   26.5  215.7   27.1  210.9 v
   26.5  215.7   25.7  222.1 v
  276.9  317.4  283.5  314.2 v
  283.5  314.2  286.4  311.5 v
  276.9  317.4  263.1  320.1 v
   23.9  233.3   22.4  240.5 v
  331.1  119.7  323.2  123.4 v
  334.3  118.2  331.1  119.7 v
  322.6  124.0  323.2  123.4 v
   27.0  163.3   27.5  167.7 v
   26.3  157.2   27.0  163.3 v
   25.7  222.1   24.6  228.1 v
   24.6  228.1   23.9  233.3 v
  307.8  246.2  303.6  245.9 v
  296.9  245.1  303.6  245.9 v
  296.9  245.1  294.3  244.4 v
  294.3  244.4  293.5  244.1 v
  286.7  259.4  283.7  257.9 v
  285.1  243.3  293.5  244.1 v
  286.7  259.4  291.3  265.7 v
  292.7  267.6  291.3  265.7 v
  294.3  272.2  292.7  267.6 v
  278.4  283.1  278.0  279.3 v
  307.8  246.2  313.6  248.3 v
  313.6  248.3  320.9  250.0 v
  324.1  252.0  320.9  250.0 v
  296.5  295.2  293.9  303.5 v
  297.9  292.4  296.5  295.2 v
  292.0  305.9  293.9  303.5 v
  292.0  305.9  286.4  311.5 v
  297.1  277.6  294.3  272.2 v
  297.1  277.6  297.9  280.4 v
  324.1  252.0  332.3  255.2 v
   26.3  157.2   25.1  149.7 v
   24.7  147.0   25.1  149.7 v
  283.7  257.9  278.4  252.7 v
  274.1  265.3  273.9  265.0 v
   60.6  193.7   60.7  183.8 v
   97.0  178.2   97.2  187.3 v
   97.2  187.3   97.1  191.5 v
   56.3  132.5   55.3  126.7 v
   56.3  132.5   57.5  141.4 v
  276.0  291.1  278.4  283.1 v
  276.0  291.1  275.9  291.4 v
  275.9  291.4  275.7  291.6 v
  271.8  299.2  275.7  291.6 v
  262.0  292.7  265.4  285.2 v
  257.9  279.4  259.0  276.7 v
  265.4  285.2  265.9  283.9 v
  259.0  276.7  259.1  276.1 v
  265.9  283.9  267.3  274.7 v
  258.7  274.7  259.1  276.1 v
  267.3  274.7  266.2  270.0 v
  254.5  299.8  262.0  292.7 v
  254.5  299.8  254.2  300.1 v
  263.8  305.3  262.8  306.4 v
  254.2  300.1  254.0  300.2 v
  262.8  306.4  252.3  309.7 v
  261.7  320.7  261.1  320.8 v
  271.8  299.2  263.8  305.3 v
   57.7  142.7   57.5  141.4 v
   57.8  143.7   57.7  142.7 v
  232.4  258.5  232.5  259.3 v
  234.8  255.6  235.5  259.4 v
  237.2  252.7  238.4  259.5 v
  239.7  249.8  241.4  259.5 v
  243.5  255.2  244.3  259.6 v
  342.1  261.9  335.2  257.9 v
  335.2  257.9  332.3  255.2 v
  342.1  261.9  348.8  269.2 v
  190.4  208.0  189.0  207.1 v
  180.8  209.4  186.7  213.1 v
   57.8  143.7   58.9  152.9 v
  359.5   65.3  358.6   62.4 v
  359.5   65.3  359.6   68.5 v
  360.4   75.7  359.6   68.5 v
  360.4   75.7  359.2   83.9 v
  359.0   85.9  359.2   83.9 v
  359.0   85.9  355.3   95.4 v
  355.1   96.2  355.3   95.4 v
  355.1   96.2  349.5  105.2 v
  348.3  106.7  349.5  105.2 v
   58.9  152.9   59.5  159.7 v
   59.5  159.7   59.7  161.7 v
   59.7  161.7   60.2  170.2 v
   60.6  193.7   60.6  195.9 v
   60.6  195.9   60.2  205.3 v
   60.0  208.4   60.2  205.3 v
   60.0  208.4   59.4  217.0 v
   58.8  222.3   59.4  217.0 v
   28.2  179.2   28.3  187.8 v
  358.6   62.4  356.6   54.8 v
  342.4  112.8  348.3  106.7 v
  356.6   54.8  353.4   48.4 v
  344.9   36.6  340.6   32.6 v
  195.7  107.4  196.0  108.4 v
  196.3  100.9  198.3  107.2 v
  197.5   96.2  200.6  106.1 v
  201.0   98.8  202.9  104.9 v
  204.5  101.3  205.2  103.7 v
  207.5  102.5  206.8  101.4 v
  209.7  101.3  207.1   97.0 v
  211.8  100.1  207.4   92.6 v
  214.0   98.9  210.0   92.2 v
  216.2   97.8  214.6   95.1 v
  184.6  114.4  184.2  110.8 v
  187.5  112.9  186.1  100.3 v
  190.4  111.4  189.5  103.3 v
  193.2  109.9  192.9  106.3 v
  147.5  123.1  148.1  121.7 v
  336.1   28.8  340.6   32.6 v
  332.3   26.2  336.1   28.8 v
  344.9   36.6  347.7   40.1 v
  347.7   40.1  351.1   44.6 v
  353.4   48.4  351.1   44.6 v
  334.8  118.1  334.3  118.2 v
  295.3   73.8  290.7   67.8 v
  165.9  257.5  168.0  266.8 v
  171.5  259.3  172.3  263.2 v
  288.8   65.2  281.0   59.6 v
  153.1  176.1  154.8  173.9 v
  153.1  176.1  149.6  175.5 v
  154.8  173.9  163.2  172.8 v
  169.7  168.2  163.2  172.8 v
  169.7  168.2  173.4  167.7 v
  173.4  167.7  175.9  167.3 v
  149.6  175.5  141.8  171.6 v
  151.6  200.8  146.4  199.4 v
  157.0  199.5  151.6  200.8 v
  157.0  199.5  164.1  204.1 v
  143.3  202.8  146.4  199.4 v
  143.3  202.8  137.4  208.2 v
  181.8  172.8  177.9  181.1 v
  160.8  152.9  171.1  155.8 v
  159.7  151.7  160.8  152.9 v
  163.0  138.3  168.8  143.5 v
  163.0  138.3  160.8  133.5 v
  168.8  143.5  170.1  145.2 v
  173.3  136.7  176.0  140.1 v
  149.1  138.1  148.5  137.1 v
  152.9  146.4  149.1  138.1 v
  159.5  129.7  160.8  133.5 v
  159.5  129.7  158.3  124.2 v
  148.5  137.1  148.3  133.1 v
  159.7  151.7  152.9  146.4 v
  137.4  208.2  135.8  211.1 v
  134.0  215.2  135.8  211.1 v
  134.0  215.2  131.0  220.4 v
  131.0  220.4  129.7  224.6 v
  334.8  118.1  335.5  117.6 v
  151.5  231.9  148.2  237.9 v
  147.6  242.4  148.2  237.9 v
  153.0  228.8  151.5  231.9 v
  160.7  222.3  153.0  228.8 v
  162.3  221.2  160.7  222.3 v
   95.5  214.2   96.3  205.9 v
   95.2  218.2   95.5  214.2 v
  128.0  230.3  127.7  234.4 v
  128.0  230.3  129.7  224.6 v
  127.7  234.4  126.8  240.5 v
  128.0  249.0  126.8  240.5 v
  128.0  249.0  128.3  251.0 v
  147.2  248.8  147.4  252.9 v
  147.6  242.4  147.2  248.8 v
   94.1  229.3   95.0  219.9 v
   95.0  219.9   95.2  218.2 v
  172.4  228.6  165.2  233.7 v
  165.2  233.7  162.7  238.5 v
  174.9  226.7  172.4  228.6 v
  159.7  243.0  162.7  238.5 v
   93.5  234.9   94.1  229.3 v
   96.7  202.0   96.3  205.9 v
  173.4  238.1  167.6  246.2 v
  174.5  248.4  174.3  248.7 v
  173.9  237.4  173.4  238.1 v
  179.4  239.8  174.5  248.4 v
  184.5  242.6  178.9  250.5 v
  185.2  249.6  183.3  252.2 v
  177.0  259.4  178.9  250.5 v
  182.7  255.2  183.3  252.2 v
  165.9  257.5  166.7  254.8 v
  171.5  259.3  174.3  249.0 v
  184.8  242.2  184.5  242.6 v
  188.5  244.1  185.2  249.6 v
  192.1  246.1  190.0  249.7 v
   92.5  129.3   91.6  122.2 v
   92.3  247.4   91.9  251.2 v
  167.4  112.0  166.1  115.6 v
  152.8  110.5  150.7  116.6 v
  159.4  116.1  159.6  115.6 v
   22.4  240.5   21.8  246.2 v
  214.4  135.8  207.2  128.7 v
  214.7  132.9  209.2  127.4 v
  215.0  130.0  211.2  126.2 v
  215.3  127.0  213.3  125.0 v
  215.6  124.1  215.3  123.7 v
  174.8  208.9  168.5  204.2 v
  168.5  204.2  164.1  204.1 v
  180.8  209.4  174.8  208.9 v
  185.3  188.8  185.2  186.4 v
  177.6  193.6  177.0  182.6 v
  217.7   95.6  218.5   96.5 v
  217.8   91.7  221.0   95.0 v
  217.9   87.8  223.5   93.6 v
  220.1   86.1  225.9   92.1 v
  218.5   96.5  219.3   97.9 v
  221.0   95.0  224.0  100.7 v
  228.3  102.6  223.5   93.6 v
  228.3   96.5  225.9   92.1 v
  228.3  102.6  228.6  103.0 v
  228.3   96.5  231.5  101.2 v
  228.7   91.1  234.5   99.4 v
  235.5   94.8  237.4   97.6 v
  219.1  108.7  217.3  105.5 v
  221.5  107.3  217.5  100.4 v
  223.8  105.9  219.3   97.9 v
  226.2  104.4  224.0  100.7 v
  228.5   90.7  228.7   91.1 v
  231.7   88.7  235.5   94.8 v
  235.0   86.7  238.7   92.8 v
  238.3   84.7  238.5   85.1 v
  218.6   84.4  220.1   86.1 v
  221.1   82.8  228.2   90.5 v
  223.6   81.3  228.2   86.2 v
  226.1   79.7  228.2   81.9 v
  228.6  103.0  228.7  103.3 v
  231.5  101.2  232.6  105.0 v
  234.5   99.4  236.5  106.7 v
  239.5  105.0  237.4   97.6 v
  239.5  105.0  240.4  107.6 v
  241.7   98.1  244.3  105.4 v
  247.5  100.8  248.3  103.1 v
  230.1  116.1  228.7  112.4 v
  232.6  114.0  228.7  103.3 v
  235.1  111.9  232.6  105.0 v
  237.6  109.8  236.5  106.7 v
  240.9   95.4  241.7   98.1 v
  245.0   92.9  247.5  100.8 v
  240.4  107.6  240.4  108.4 v
  244.3  105.4  244.2  110.4 v
  248.3  103.1  248.1  112.5 v
  251.9  112.9  251.9  114.5 v
  208.2  103.9  207.5  102.5 v
  212.3  106.7  209.7  101.3 v
  216.5  109.5  211.8  100.1 v
  217.3  105.5  214.0   98.9 v
  217.5  100.4  216.2   97.8 v
  238.7   92.8  240.9   95.4 v
  238.5   85.1  245.0   92.9 v
  242.9   81.8  248.8   89.9 v
  247.6   78.9  248.3   79.9 v
  249.4   90.7  253.1  100.0 v
  257.7   93.4  258.8   96.2 v
  248.8   89.9  249.2   90.3 v
  248.3   79.9  254.5   86.1 v
  353.7  277.1  349.5  270.1 v
  349.5  270.1  348.8  269.2 v
  290.7   67.8  288.8   65.2 v
  206.2  143.1  205.3  142.1 v
  207.9  141.7  205.4  139.2 v
  209.5  140.2  205.5  136.3 v
  211.2  138.8  205.7  133.4 v
  212.9  137.4  205.8  130.4 v
   96.8  175.0   97.0  178.2 v
  167.0  125.3  169.5  132.2 v
  174.4  126.2  174.6  126.7 v
  166.3  120.6  167.0  125.3 v
  174.4  126.2  174.1  124.5 v
  166.3  120.6  166.1  115.6 v
  158.3  124.2  159.4  116.1 v
  171.8  115.4  174.1  124.5 v
  176.2  115.2  178.0  122.2 v
  180.7  115.1  181.4  117.8 v
  169.5  132.2  173.3  136.7 v
  175.3  127.6  174.6  126.7 v
  175.3  127.6  180.5  136.0 v
  181.5  128.4  184.0  132.5 v
  180.5  136.0  187.0  140.6 v
  188.7  135.7  184.0  132.5 v
  185.3  146.1  179.4  141.6 v
  189.7  142.6  187.0  140.6 v
  188.7  135.7  192.4  139.4 v
  188.8  130.8  194.6  136.4 v
  175.6  147.6  170.1  145.2 v
  179.4  141.6  176.0  140.1 v
  196.6  151.5  185.4  150.1 v
  194.1  147.2  185.3  146.1 v
  191.5  142.8  189.7  142.6 v
  205.8  126.2  207.2  128.7 v
  205.8  121.5  209.2  127.4 v
  205.8  116.7  211.2  126.2 v
  213.3  125.0  210.2  119.5 v
  215.3  123.7  214.7  122.7 v
  196.1  122.7  195.9  122.4 v
  203.5  127.9  198.3  120.9 v
  205.8  126.2  200.8  119.5 v
  205.8  121.5  203.2  118.0 v
  205.8  116.7  205.7  116.6 v
  196.7  133.5  196.7  133.4 v
  199.5  132.3  196.2  127.8 v
  202.2  131.1  196.1  122.7 v
  205.0  129.9  203.5  127.9 v
  205.3  142.1  201.9  139.9 v
  205.4  139.2  196.7  133.5 v
  205.5  136.3  199.5  132.3 v
  205.7  133.4  202.2  131.1 v
  205.8  130.4  205.0  129.9 v
  200.3  143.2  192.4  139.4 v
  201.9  139.9  194.6  136.4 v
  195.7  122.1  195.9  122.4 v
  195.6  114.6  198.3  120.9 v
  200.8  119.5  196.5  109.4 v
  203.2  118.0  201.0  112.8 v
  205.7  116.6  205.6  116.3 v
  207.9  115.3  210.2  119.5 v
  210.1  114.0  214.7  122.7 v
  212.4  112.7  216.1  119.8 v
  214.6  111.4  216.6  115.2 v
  216.8  110.1  217.0  110.6 v
  297.1   97.4  298.1   94.4 v
  293.3  106.4  297.1   97.4 v
  297.9   83.8  298.1   94.4 v
  292.6  107.4  293.3  106.4 v
  292.6  107.4  291.6  108.4 v
  322.6  124.0  320.2  124.8 v
  320.2  124.8  310.5  128.2 v
  297.9   83.7  295.3   73.8 v
  297.9   83.7  297.9   83.7 v
  278.3   89.8  276.3   85.1 v
  274.9   80.1  269.5   74.0 v
  276.3   85.1  274.9   80.1 v
  266.9   93.0  264.5   87.6 v
  278.3   89.8  278.0   94.0 v
  278.6   58.1  281.0   59.6 v
  267.0   54.5  271.7   56.6 v
  271.7   56.6  278.6   58.1 v
  267.6   72.0  262.0   68.1 v
  248.7   63.9  262.0   68.1 v
  258.9   55.8  267.0   54.5 v
  269.5   74.0  267.6   72.0 v
  280.7  119.0  287.1  115.0 v
  269.8  117.2  271.8  114.5 v
  278.8  121.5  280.7  119.0 v
  287.1  115.0  291.6  108.4 v
   96.7  202.0   97.1  191.5 v
  238.4   79.5  242.9   81.8 v
  238.4   74.1  247.6   78.9 v
  228.2   90.5  228.5   90.7 v
  228.2   86.2  231.7   88.7 v
  228.2   81.9  235.0   86.7 v
  238.3   84.7  235.5   82.7 v
   58.8  222.3   58.0  229.8 v
   56.5  240.9   58.0  229.8 v
  171.1  155.8  172.5  156.5 v
  175.6  147.6  180.5  150.0 v
   93.5  234.9   93.1  240.3 v
  198.4  268.1  198.1  268.6 v
  202.8  264.7  200.5  269.5 v
  207.2  261.2  202.9  270.4 v
  205.2  271.3  208.1  265.3 v
  207.6  272.2  208.4  270.6 v
  209.8  261.6  208.1  265.3 v
  212.2  262.7  208.4  270.6 v
  214.5  263.7  211.1  270.8 v
  216.8  264.8  215.4  267.8 v
  196.7  257.5  196.9  256.9 v
  197.3  263.3  199.5  257.9 v
  198.4  268.1  202.2  258.8 v
  202.8  264.7  204.8  259.7 v
  207.2  261.2  207.4  260.6 v
  211.1  270.8  210.0  273.0 v
  215.4  267.8  212.5  273.7 v
  218.6  267.1  214.9  274.4 v
  218.2  273.5  217.4  275.1 v
  198.2  255.1  196.9  256.9 v
  199.5  257.9  206.0  248.6 v
  202.2  258.8  206.6  252.4 v
  204.8  259.7  207.2  256.3 v
  207.4  260.6  207.7  260.2 v
  210.0  273.0  208.8  274.9 v
  212.5  273.7  209.3  278.7 v
  214.9  274.4  209.7  282.5 v
  212.8  282.3  217.4  275.1 v
  211.4  258.2  209.8  261.6 v
  215.7  255.3  212.2  262.7 v
  214.5  263.7  218.6  255.2 v
  216.8  264.8  218.6  261.1 v
  263.6  260.8  261.5  259.3 v
  269.9  257.2  263.1  252.2 v
   95.9  164.1   95.8  162.9 v
  127.6  141.0  129.8  151.4 v
  131.1  153.8  134.0  161.5 v
   95.8  162.9   94.9  153.9 v
  127.4  139.7  127.6  141.0 v
  127.4  139.7  127.3  128.0 v
  219.1  108.7  220.1  111.7 v
  221.5  107.3  223.5  113.8 v
  223.8  105.9  227.0  115.9 v
  228.7  112.4  226.2  104.4 v
  274.3  265.8  274.1  265.3 v
  178.0  122.2  181.5  128.4 v
  181.4  117.8  185.6  125.3 v
  162.3  221.2  170.9  218.3 v
   94.6  150.9   93.5  139.6 v
   93.5  139.6   93.4  138.9 v
   94.7  151.2   94.6  150.9 v
   93.4  138.9   93.2  137.4 v
  159.4  247.2  159.7  243.0 v
  297.9  280.4  297.9  290.5 v
  297.9  290.5  297.9  292.4 v
  250.9  281.8  252.1  277.9 v
  255.6  286.7  257.9  279.4 v
  250.9  281.8  246.9  287.3 v
  254.5  288.1  255.6  286.7 v
  254.5  288.1  249.9  294.7 v
  249.9  294.7  244.3  297.2 v
  247.9  302.9  241.5  305.9 v
  239.2  282.3  240.2  280.2 v
  242.5  286.0  245.8  279.3 v
  245.8  289.6  246.9  287.3 v
  239.2  282.3  237.0  284.5 v
  237.8  290.6  242.5  286.0 v
  244.9  290.4  245.8  289.6 v
  240.2  280.2  243.2  273.4 v
  245.8  279.3  246.7  277.3 v
  244.1  269.8  243.2  273.4 v
  248.5  269.6  246.7  277.3 v
  237.8  290.6  236.4  291.8 v
  244.9  290.4  238.1  296.5 v
  244.3  297.2  239.7  301.2 v
  241.5  305.9  241.4  306.0 v
  231.0  274.6  232.2  271.6 v
  233.6  277.0  236.0  270.9 v
  236.2  279.4  239.7  270.1 v
  228.8  271.2  232.4  260.2 v
  232.2  271.6  234.9  263.3 v
  236.0  270.9  237.4  266.5 v
  239.7  270.1  239.9  269.6 v
  225.5  282.8  225.8  282.4 v
  228.3  284.9  230.5  281.7 v
  231.1  287.0  235.1  281.0 v
  233.9  289.1  237.0  284.5 v
  225.5  282.8  224.4  283.8 v
  228.3  284.9  221.0  291.4 v
  226.1  291.4  231.1  287.0 v
  231.7  291.0  233.9  289.1 v
  210.4  285.9  210.7  285.6 v
  212.5  287.1  214.4  284.8 v
  214.5  288.3  218.2  284.0 v
  216.5  289.4  221.9  283.2 v
  218.6  290.6  224.4  283.8 v
  220.6  291.8  221.0  291.4 v
  225.8  282.4  231.0  274.6 v
  230.5  281.7  233.6  277.0 v
  235.1  281.0  236.2  279.4 v
  276.2  106.8  278.5  100.6 v
  139.4  168.1  134.0  161.5 v
  182.3  218.5  183.3  218.2 v
  174.9  226.7  183.1  224.6 v
  140.2  169.8  139.4  168.1 v
  264.8  263.3  263.6  260.8 v
  273.9  265.0  269.9  257.2 v
  131.1  153.8  129.8  151.4 v
  166.7  254.8  167.6  246.2 v
  174.3  249.0  174.3  248.7 v
  173.9  237.4  183.0  231.0 v
  179.4  239.8  183.8  236.8 v
  183.1  231.0  183.0  231.0 v
  188.2  233.1  183.8  236.8 v
  193.3  235.2  186.4  241.0 v
  140.2  169.8  141.8  171.6 v
  186.4  241.0  184.8  242.2 v
  188.5  244.1  195.0  239.2 v
  192.1  246.1  194.1  244.6 v
  196.7  237.3  195.0  239.2 v
  198.7  239.4  194.1  244.6 v
  200.7  241.5  195.9  246.9 v
  202.7  243.6  199.8  246.9 v
  204.7  245.7  203.6  246.8 v
  195.9  246.9  194.3  249.2 v
  199.8  246.9  195.5  253.3 v
  198.2  255.1  203.6  246.8 v
  187.2  253.6  190.0  249.7 v
  190.5  254.7  194.3  249.2 v
  193.7  255.9  195.5  253.3 v
  187.2  253.6  186.0  257.4 v
  187.7  263.7  190.5  254.7 v
  192.4  260.1  193.7  255.9 v
  176.5  260.9  177.0  259.4 v
  180.1  262.1  182.7  255.2 v
  183.8  263.3  186.0  257.4 v
  187.4  129.3  188.8  130.8 v
  190.2  127.0  196.7  133.4 v
  193.0  124.7  196.2  127.8 v
  185.6  125.3  187.4  129.3 v
  190.2  127.0  185.5  116.2 v
  193.0  124.7  190.7  119.4 v
  172.5  156.5  182.1  156.9 v
  180.5  150.0  181.6  150.0 v
  342.4  112.8  335.5  117.6 v
  297.9   83.8  297.9   83.7 v
   94.7  151.2   94.9  153.9 v
  219.2  265.9  218.6  267.1 v
  221.5  267.5  218.2  273.5 v
  223.8  269.1  220.8  274.6 v
  226.1  270.7  224.6  273.5 v
  228.4  272.3  228.4  272.4 v
  220.8  274.6  219.5  276.8 v
  224.6  273.5  221.4  278.8 v
  228.4  272.4  223.4  280.8 v
  210.7  285.6  212.8  282.3 v
  214.4  284.8  219.5  276.8 v
  218.2  284.0  221.4  278.8 v
  221.9  283.2  223.4  280.8 v
  219.4  265.2  219.2  265.9 v
  222.7  263.6  221.5  267.5 v
  226.0  262.0  223.8  269.1 v
  229.3  260.4  226.1  270.7 v
  228.4  272.3  228.8  271.2 v
  187.3  264.5  187.7  263.7 v
  190.0  265.6  192.4  260.1 v
  192.7  266.6  196.7  257.5 v
  195.5  267.6  197.3  263.3 v
   95.9  164.1   96.8  175.0 v
  278.3  273.9  278.0  279.3 v
  186.6  170.6  181.8  172.8 v
  183.8  163.8  175.9  167.3 v
  252.1  277.9  253.4  271.9 v
  255.5   75.5  258.1   78.4 v
  248.4   71.7  255.5   75.5 v
  248.5   63.8  248.7   63.9 v
  258.1   78.4  262.7   83.3 v
  264.5   87.6  262.7   83.3 v
  249.4   90.7  249.2   90.3 v
  257.7   93.4  254.5   86.1 v
  271.8  114.5  276.2  106.8 v
  253.1  100.0  253.3  103.3 v
  258.8   96.2  259.1  105.6 v
  266.8   99.1  267.2  104.2 v
  253.1  267.7  253.4  271.9 v
  258.1  264.3  258.7  274.7 v
  248.2  264.3  248.1  260.0 v
  253.1  267.7  253.1  260.9 v
  258.1  264.3  258.0  261.8 v
  244.1  269.8  243.7  263.8 v
  248.5  269.6  248.2  264.3 v
  232.4  260.2  232.5  259.3 v
  234.9  263.3  235.5  259.4 v
  237.4  266.5  238.4  259.5 v
  239.9  269.6  241.4  259.5 v
  243.7  263.8  244.3  259.6 v
  253.3  103.3  251.9  112.9 v
  258.8  108.0  259.1  105.6 v
  258.8  108.0  257.5  115.2 v
  264.1  111.2  263.3  115.8 v
  267.2  104.2  264.1  111.2 v
  278.5  100.6  278.0   94.0 v
  147.3  125.0  148.3  133.1 v
  170.9  218.3  182.3  218.5 v
  196.6  151.5  198.5  152.3 v
  194.1  147.2  200.5  149.8 v
  191.5  142.8  202.4  147.4 v
  204.4  144.9  200.3  143.2 v
  182.1  156.9  189.3  157.2 v
  185.4  150.1  181.6  150.0 v
  266.8   99.1  266.9   93.0 v
  185.2  186.4  188.1  181.6 v
  177.0  182.6  177.9  181.1 v
  186.6  170.6  191.7  163.8 v
  183.8  163.8  185.5  161.5 v
  191.7  163.8  192.2  163.7 v
  185.5  161.5  194.3  159.7 v
  189.3  157.2  196.4  155.7 v
   92.5  129.3   93.2  137.4 v
   56.5  240.9   56.3  241.9 v
   93.1  240.3   92.3  247.4 v
  128.1  124.9  127.3  128.0 v
  147.5  123.1  147.3  125.0 v
  183.6  218.1  183.3  218.2 v
  188.9  223.1  183.1  224.6 v
  192.3  227.4  183.1  231.0 v
  193.6  231.0  188.2  233.1 v
  195.0  234.5  193.3  235.2 v
  159.4  247.2  158.0  255.1 v
  226.1  291.4  223.2  293.5 v
  231.7  291.0  225.9  295.2 v
  235.0  292.3  228.6  297.0 v
  236.4  291.8  235.0  292.3 v
  238.1  296.5  231.3  298.8 v
  239.7  301.2  236.3  302.4 v
  241.4  306.0  241.3  306.0 v
  184.6  114.4  185.5  116.2 v
  187.5  112.9  190.7  119.4 v
  195.7  122.1  190.4  111.4 v
  195.6  114.6  193.2  109.9 v
  228.8   77.9  235.5   82.7 v
  238.4   79.5  232.6   75.2 v
  238.4   74.1  236.3   72.6 v
  196.0  108.4  196.5  109.4 v
  198.3  107.2  201.0  112.8 v
  200.6  106.1  205.6  116.3 v
  206.1  111.5  202.9  104.9 v
  206.5  106.3  205.2  103.7 v
  248.4   71.7  241.5   68.8 v
  248.5   63.8  248.3   63.7 v
  207.9  115.3  206.1  111.5 v
  210.1  114.0  206.5  106.3 v
  212.4  112.7  208.2  103.9 v
  214.6  111.4  212.3  106.7 v
  216.8  110.1  216.5  109.5 v
  219.3  253.7  218.6  255.2 v
  221.4  254.7  218.6  261.1 v
  223.6  255.6  219.4  265.2 v
  225.8  256.6  222.7  263.6 v
  227.9  257.6  226.0  262.0 v
  230.1  258.6  229.3  260.4 v
  247.9  302.9  254.0  300.2 v
  248.6  311.4  252.3  309.7 v
  296.8  131.1  307.7  127.9 v
  278.3  273.9  274.3  265.8 v
  266.2  270.0  264.8  263.3 v
  206.7  247.3  206.0  248.6 v
  208.8  248.4  206.6  252.4 v
  210.9  249.4  207.2  256.3 v
  213.0  250.5  207.7  260.2 v
  211.4  258.2  215.1  251.6 v
  215.7  255.3  217.2  252.6 v
  261.7  320.7  263.1  320.1 v
  217.3  122.6  216.1  119.8 v
  219.4  121.6  216.6  115.2 v
  221.5  120.6  217.0  110.6 v
  223.6  119.6  220.1  111.7 v
  225.7  118.6  223.5  113.8 v
  227.8  117.6  227.0  115.9 v
  240.8  117.7  240.4  108.4 v
  244.5  117.2  244.2  110.4 v
  248.2  116.0  248.1  112.5 v
  251.9  114.8  251.9  114.5 v
  230.1  117.2  230.1  116.1 v
  232.8  117.5  232.6  114.0 v
  235.5  117.7  235.1  111.9 v
  238.2  118.0  237.6  109.8 v
  240.9  118.3  240.8  117.7 v
  310.5  128.2  307.7  127.9 v
  500.0  375.0  500.0  363.0 v
  500.0  363.0  500.0  351.0 v
  500.0  351.0  500.0  339.0 v
  500.0  339.0  500.0  327.0 v
  500.0  327.0  500.0  315.0 v
  500.0  315.0  500.0  303.0 v
  500.0  303.0  500.0  291.0 v
  500.0  291.0  500.0  279.0 v
  500.0  279.0  500.0  267.0 v
  500.0  267.0  500.0  255.1 v
  500.0  255.1  500.0  243.1 v
  500.0  243.1  500.0  231.1 v
  500.0  231.1  500.0  219.1 v
  500.0  219.1  500.0  207.1 v
  500.0  207.1  500.0  195.1 v
  500.0  195.1  500.0  183.1 v
  500.0  183.1  500.0  171.1 v
  500.0  171.1  500.0  159.1 v
  500.0  159.1  500.0  147.2 v
  500.0  147.2  500.0  135.2 v
  500.0  135.2  500.0  123.2 v
  500.0  123.2  500.0  111.3 v
  500.0  111.3  500.0   99.4 v
  500.0   99.4  500.0   87.6 v
  500.0   87.6  500.0   75.8 v
  500.0   75.8  500.0   64.2 v
  500.0   64.2  500.0   52.7 v
  500.0   52.7  500.0   41.5 v
  500.0   41.5  500.0   30.6 v
  500.0   30.6  500.0   20.0 v
  500.0   20.0  500.0    9.8 v
  500.0    9.8  500.0    0.0 v
  500.0    0.0  488.0    0.6 v
  488.0    0.6  476.1    1.2 v
  476.1    1.2  464.1    1.8 v
  464.1    1.8  452.1    2.6 v
  452.1    2.6  440.2    3.4 v
  440.2    3.4  428.2    4.4 v
  428.2    4.4  416.3    5.4 v
  416.3    5.4  404.4    6.6 v
  404.4    6.6  392.5    7.9 v
  392.5    7.9  380.7    9.5 v
  380.7    9.5  369.0   11.3 v
  369.0   11.3  357.3   13.3 v
  357.3   13.3  345.7   15.7 v
  345.7   15.7  334.2   18.6 v
  334.2   18.6  322.8   21.9 v
  322.8   21.9  311.6   25.8 v
  311.6   25.8  300.6   30.4 v
  300.6   30.4  289.9   35.7 v
  289.9   35.7  279.3   41.9 v
  279.3   41.9  268.8   48.7 v
  268.8   48.7  258.6   56.1 v
  258.6   56.1  248.5   63.7 v
  248.5   63.7  238.4   71.2 v
  238.4   71.2  228.2   78.3 v
  228.2   78.3  218.0   84.8 v
  218.0   84.8  207.5   90.6 v
  207.5   90.6  196.8   95.7 v
  196.8   95.7  185.9  100.1 v
  185.9  100.1  174.8  103.9 v
  174.8  103.9  163.5  107.1 v
  163.5  107.1  152.0  109.8 v
  152.0  109.8  140.3  112.1 v
  140.3  112.1  128.6  114.1 v
  128.6  114.1  116.8  115.9 v
  116.8  115.9  105.0  117.4 v
  105.0  117.4   93.2  118.7 v
   93.2  118.7   81.3  119.8 v
   81.3  119.8   69.5  120.8 v
   69.5  120.8   57.7  121.7 v
   57.7  121.7   45.9  122.5 v
   45.9  122.5   34.3  123.3 v
   34.3  123.3   22.7  123.9 v
   22.7  123.9   11.3  124.5 v
   11.3  124.5    0.0  125.0 v
    0.0  125.0    0.0  136.9 v
    0.0  136.9    0.0  148.8 v
    0.0  148.8    0.0  160.6 v
    0.0  160.6    0.0  172.4 v
    0.0  172.4    0.0  184.1 v
    0.0  184.1    0.0  195.7 v
    0.0  195.7    0.0  207.1 v
    0.0  207.1    0.0  218.3 v
    0.0  218.3    0.0  229.1 v
    0.0  229.1    0.0  239.7 v
    0.0  239.7    0.0  250.0 v
    0.0  250.0   12.0  250.6 v
   12.0  250.6   23.9  251.2 v
   23.9  251.2   35.9  251.8 v
   35.9  251.8   47.9  252.6 v
   47.9  252.6   59.8  253.4 v
   59.8  253.4   71.8  254.4 v
   71.8  254.4   83.7  255.4 v
   83.7  255.4   95.6  256.6 v
   95.6  256.6  107.5  257.9 v
  107.5  257.9  119.3  259.5 v
  119.3  259.5  131.0  261.3 v
  131.0  261.3  142.7  263.3 v
  142.7  263.3  154.3  265.7 v
  154.3  265.7  165.8  268.6 v
  165.8  268.6  177.2  271.9 v
  177.2  271.9  188.4  275.8 v
  188.4  275.8  199.4  280.4 v
  199.4  280.4  210.1  285.7 v
  210.1  285.7  220.7  291.9 v
  220.7  291.9  231.2  298.7 v
  231.2  298.7  241.4  306.1 v
  241.4  306.1  251.5  313.7 v
  251.5  313.7  261.6  321.2 v
  261.6  321.2  271.8  328.3 v
  271.8  328.3  282.0  334.8 v
  282.0  334.8  292.5  340.6 v
  292.5  340.6  303.2  345.7 v
  303.2  345.7  314.1  350.1 v
  314.1  350.1  325.2  353.9 v
  325.2  353.9  336.5  357.1 v
  336.5  357.1  348.0  359.8 v
  348.0  359.8  359.7  362.1 v
  359.7  362.1  371.4  364.1 v
  371.4  364.1  383.2  365.9 v
  383.2  365.9  395.0  367.4 v
  395.0  367.4  406.8  368.7 v
  406.8  368.7  418.7  369.8 v
  418.7  369.8  430.5  370.8 v
  430.5  370.8  442.3  371.7 v
  442.3  371.7  454.1  372.5 v
  454.1  372.5  465.7  373.3 v
  465.7  373.3  477.3  373.9 v
  477.3  373.9  488.7  374.5 v
  488.7  374.5  500.0  375.0 v
  312.5  187.5  311.3  199.5 v
  311.3  199.5  307.9  211.0 v
  307.9  211.0  302.3  221.7 v
  302.3  221.7  294.8  231.1 v
  294.8  231.1  285.7  238.8 v
  285.7  238.8  275.2  244.7 v
  275.2  244.7  263.9  248.4 v
  263.9  248.4  252.0  250.0 v
  252.0  250.0  240.2  249.2 v
  240.2  249.2  228.8  246.3 v
  228.8  246.3  218.2  241.3 v
  218.2  241.3  208.9  234.6 v
  208.9  234.6  201.1  226.4 v
  201.1  226.4  195.0  217.3 v
  195.0  217.3  190.8  207.5 v
  190.8  207.5  188.3  197.5 v
  188.3  197.5  187.5  187.5 v
  187.5  187.5  188.7  175.5 v
  188.7  175.5  192.1  164.0 v
  192.1  164.0  197.7  153.3 v
  197.7  153.3  205.2  143.9 v
  205.2  143.9  214.3  136.2 v
  214.3  136.2  224.8  130.3 v
  224.8  130.3  236.1  126.6 v
  236.1  126.6  248.0  125.0 v
  248.0  125.0  259.8  125.8 v
  259.8  125.8  271.2  128.7 v
  271.2  128.7  281.8  133.7 v
  281.8  133.7  291.1  140.4 v
  291.1  140.4  298.9  148.6 v
  298.9  148.6  305.0  157.7 v
  305.0  157.7  309.2  167.5 v
  309.2  167.5  311.7  177.5 v
  311.7  177.5  312.5  187.5 v
/l{lineto}def /m{moveto}def /s{l stroke}def
/x{exch}def /rm{rmoveto}def
/np{newpath}def /cp{closepath}def

/fsize 27 def
/Times-Roman findfont fsize scalefont setfont

/ctext{3 1 roll m dup stringwidth fsize 0.33
mul sub x 2 div 0 x sub x rm show}def

/clearField{/yUp x def /xRight x def
/yDown x def /xLeft x def
gsave np xLeft yDown m xRight yDown
l xRight yUp l xLeft yUp l cp 1 setgray fill
grestore}def

/clearANDctext{3 copy stringwidth /dY fsize 2
div def pop /dX x 2 div def /yDown x def /xLeft
x def xLeft dX sub yDown dY sub xLeft dX add
yDown dY add clearField ctext}def

0. 0. 1. setrgbcolor
250 450 (Pressure isolines on the initial mesh) clearANDctext
  showpage
